wr=60;
cost_1=100;
cost_2=180;
cost_3=350;
nProviders=3000;
available_workers=[12 18 22 22 14 16 22 18 18 22 18 18 16 22 20 8 10 10 22 22 10 10 10 14 20 16 20 20 16 14 22 22 12 18 16 16 16 22 14 12 18 16 12 12 22 14 18 14 20 18 10 12 22 8 20 16 22 22 16 14 16 10 18 18 22 16 14 20 10 20 12 22 10 12 10 10 16 22 12 16 10 10 10 16 18 20 14 12 12 18 14 14 20 22 16 10 16 18 10 22 18 18 20 16 18 18 16 12 16 14 12 16 14 12 22 22 10 8 22 12 10 8 10 22 18 10 12 8 18 12 16 10 20 8 16 18 14 22 16 22 12 12 12 22 18 14 20 16 22 10 10 16 16 22 16 16 10 14 22 10 8 20 22 14 18 22 14 18 22 8 20 16 16 8 12 16 20 14 12 16 12 14 20 16 20 16 20 16 14 12 22 20 22 14 18 22 10 10 18 8 20 12 14 22 10 10 16 20 20 20 12 20 8 12 18 8 16 12 14 14 12 16 16 8 20 20 14 12 20 18 20 16 20 14 20 10 18 12 22 18 22 16 22 8 8 14 12 10 20 22 20 18 10 16 16 12 18 8 10 14 22 12 8 20 18 12 16 18 14 14 22 18 18 10 16 14 22 22 14 20 18 14 16 18 22 14 10 22 18 18 10 12 22 8 18 18 14 22 8 12 12 20 10 22 14 10 18 10 22 8 16 12 8 22 10 16 22 22 20 22 8 14 14 14 12 14 10 14 20 20 20 12 22 10 8 22 16 14 18 18 22 10 20 14 20 22 8 20 20 22 8 10 16 12 14 16 16 12 16 12 22 18 20 8 18 18 12 20 10 14 18 10 18 10 12 20 14 12 14 14 18 16 22 12 14 14 16 8 8 22 20 16 22 12 12 12 16 18 14 16 14 18 10 16 12 18 10 10 20 18 12 8 12 18 16 22 10 22 10 22 14 22 8 10 12 12 18 10 18 20 22 8 14 20 14 22 12 16 10 16 12 10 12 20 22 20 8 12 16 20 12 20 20 18 8 20 10 20 20 8 22 10 20 20 10 14 16 12 14 18 16 16 16 14 12 20 14 12 10 18 12 14 14 20 16 12 20 12 14 10 22 12 16 14 22 10 22 14 18 20 18 22 12 16 22 10 22 20 16 12 12 20 16 18 10 14 10 22 12 14 16 22 22 8 20 8 18 22 16 12 20 22 8 8 16 18 16 12 10 20 12 18 20 18 12 18 22 22 14 10 14 16 12 22 14 16 22 10 14 12 14 20 8 8 22 16 22 16 22 20 20 16 18 22 12 12 10 22 20 8 18 22 8 14 12 18 18 12 18 20 14 8 14 10 8 18 14 20 20 10 22 10 12 12 18 18 18 8 10 18 10 8 14 14 12 22 14 18 16 12 12 18 18 8 18 16 20 20 18 18 22 14 20 14 16 12 14 20 22 18 22 22 20 12 10 18 22 12 18 14 22 10 22 10 14 10 12 8 16 22 22 8 12 20 22 10 18 12 10 14 20 20 12 18 16 16 20 22 20 20 10 20 18 22 22 16 14 14 12 18 18 16 12 12 18 10 22 18 22 10 10 10 14 22 16 22 20 12 20 18 14 16 8 16 16 18 22 12 18 12 10 16 10 10 14 14 18 10 18 10 12 12 14 8 10 12 20 22 14 10 16 18 22 14 22 12 12 8 14 16 10 16 12 18 18 16 14 12 10 14 16 14 16 10 10 8 12 10 22 16 12 14 18 14 14 10 8 18 10 12 22 18 8 10 12 16 14 16 16 8 12 20 18 18 20 22 10 12 12 12 18 18 16 18 12 12 16 10 22 18 20 22 10 20 18 16 18 14 14 20 12 20 20 22 20 14 16 12 8 12 22 18 22 20 14 22 22 22 16 22 20 16 8 18 10 10 10 16 12 10 8 10 8 14 10 16 10 20 20 14 8 22 12 12 18 12 18 22 10 14 14 22 20 22 22 12 18 14 16 20 18 18 12 14 10 20 10 20 22 16 12 12 14 16 10 20 16 18 22 8 16 18 10 18 10 14 14 14 8 18 10 18 22 10 20 20 20 20 22 12 22 16 20 16 10 16 22 20 18 10 12 20 20 18 14 16 14 22 8 14 18 16 14 22 16 10 20 12 18 16 10 8 20 12 12 10 12 18 20 22 18 22 8 22 10 12 8 16 14 18 22 14 14 14 18 18 14 12 10 10 20 18 18 14 12 22 10 16 22 18 22 18 16 10 18 16 22 12 18 14 20 16 8 10 10 12 10 20 8 20 22 12 16 20 14 22 18 14 10 18 12 14 10 16 16 16 18 14 10 18 12 12 16 10 22 14 10 8 14 20 14 22 22 10 12 20 22 10 18 20 14 22 12 18 14 14 22 16 12 18 16 18 12 22 22 10 8 12 16 8 12 20 8 18 8 14 14 18 16 20 12 20 16 20 14 14 16 14 22 8 12 12 16 10 8 18 22 20 12 12 16 22 12 20 10 14 14 18 12 10 14 14 20 10 20 18 16 10 14 12 20 18 22 20 22 8 22 16 10 16 14 16 22 14 10 22 20 12 14 16 22 14 22 14 12 10 8 18 22 10 12 18 20 12 12 14 14 10 10 12 20 10 18 20 10 12 8 18 14 22 16 10 20 8 10 18 18 22 10 12 18 14 20 10 20 18 16 12 14 14 10 20 10 8 12 22 10 18 12 12 22 14 16 22 8 10 22 18 10 8 14 20 16 10 10 22 18 16 8 12 18 22 16 20 8 18 12 20 14 12 12 18 14 20 10 22 14 10 12 16 22 18 10 12 16 14 14 8 18 22 22 18 14 10 22 22 12 22 10 16 14 18 20 22 22 18 16 20 22 16 8 14 22 10 14 16 10 12 22 10 12 18 22 18 22 20 14 10 22 12 10 22 10 16 18 10 16 20 18 12 8 8 10 8 18 12 10 16 10 14 10 8 16 16 14 8 10 14 20 12 12 12 8 16 10 22 20 20 12 22 10 22 12 8 10 16 22 18 14 18 16 16 8 20 22 22 14 18 8 8 22 10 12 22 10 20 10 22 22 22 22 16 16 22 18 16 12 18 12 12 12 20 16 18 14 10 22 10 8 22 22 20 22 20 14 8 14 22 12 18 16 22 14 22 18 10 10 12 14 16 22 10 18 10 10 10 20 12 8 16 14 20 14 18 22 10 18 14 10 20 20 14 18 18 10 18 14 22 22 22 8 8 10 10 14 18 20 8 14 18 22 10 10 10 10 20 20 18 22 20 10 14 14 16 20 10 16 10 20 22 22 18 12 22 22 16 18 18 22 18 22 10 16 14 8 20 20 12 12 10 22 12 12 12 10 22 18 12 18 20 22 8 10 22 10 22 18 14 22 22 22 14 20 18 10 12 12 12 20 16 8 8 22 16 22 16 18 16 22 12 18 14 8 12 16 16 10 10 12 20 14 16 20 16 10 16 22 12 10 16 10 10 12 12 10 10 12 20 10 8 20 16 10 22 16 16 16 12 20 16 12 16 8 20 8 18 12 14 18 22 20 18 16 14 14 14 22 12 14 14 22 14 22 22 18 18 10 22 10 22 14 16 22 10 22 10 18 16 16 18 14 18 18 12 18 10 18 14 16 12 8 14 16 16 18 16 10 14 20 16 10 10 16 22 14 20 22 12 16 22 16 8 22 8 16 18 14 20 20 10 22 20 8 10 20 22 14 12 22 20 18 22 14 18 18 8 14 22 20 10 14 22 20 16 14 22 14 14 16 10 8 22 14 12 8 12 16 18 12 16 10 16 22 12 10 14 22 22 16 22 22 10 22 10 20 16 12 22 16 16 16 16 14 14 16 16 20 12 12 10 8 20 14 20 8 18 18 14 14 10 10 14 12 12 12 20 16 18 12 16 18 10 12 12 10 18 14 12 10 20 10 12 20 16 12 14 10 10 8 10 16 10 16 16 22 14 10 10 22 20 18 12 8 12 10 22 20 18 12 20 14 16 20 14 20 20 18 22 12 18 20 10 10 10 22 14 22 22 22 10 16 14 8 10 16 8 14 22 8 14 12 10 18 18 20 12 14 18 8 12 14 10 18 16 8 20 12 12 12 20 10 10 20 20 10 8 10 16 8 20 10 12 12 14 12 20 10 20 14 12 8 14 10 20 22 10 14 16 18 10 16 14 12 10 12 18 22 8 18 18 8 22 14 22 16 16 14 22 14 20 14 16 16 20 16 18 22 14 14 22 12 18 12 20 14 22 12 22 22 10 18 22 10 18 14 12 8 10 20 22 20 16 8 16 12 14 14 20 12 16 8 10 18 18 14 22 12 8 20 10 22 18 16 16 14 16 12 10 18 20 16 12 22 14 16 20 22 18 16 22 20 18 20 14 18 10 16 18 8 10 18 16 22 14 10 18 8 20 20 10 10 22 18 12 22 20 22 16 18 18 22 18 18 18 14 14 20 10 8 8 10 20 20 20 16 12 16 10 22 14 12 16 22 12 8 14 18 12 22 18 14 20 20 10 10 20 20 20 8 20 10 22 16 12 18 12 12 16 22 20 16 12 20 8 16 14 12 16 22 22 12 12 8 20 10 12 14 22 10 16 22 14 12 18 18 14 14 8 18 20 8 20 22 8 22 16 20 20 20 18 16 14 12 14 8 12 14 12 18 14 20 16 14 20 22 18 10 20 18 22 22 20 12 8 10 10 12 22 22 12 12 14 16 12 12 10 12 16 16 20 18 8 18 14 20 16 8 14 18 14 14 16 12 14 14 20 14 18 22 22 22 20 20 12 14 10 10 8 14 14 20 8 18 18 14 10 20 14 10 20 20 12 8 12 22 16 22 10 18 20 22 12 12 12 12 14 18 22 14 22 18 18 18 16 18 10 12 16 10 20 20 10 10 22 16 10 20 12 16 10 16 22 18 18 20 10 10 16 12 18 12 12 20 16 20 12 12 14 10 18 10 14 14 14 14 16 10 22 20 8 8 10 22 10 20 12 16 10 12 10 18 22 16 10 16 20 16 22 22 20 8 10 18 14 14 16 20 20 18 12 14 14 22 10 20 14 10 18 12 12 8 18 14 22 14 20 12 16 18 22 10 16 8 12 20 10 14 16 18 18 14 18 10 14 20 20 18 18 20 8 20 14 14 8 10 18 8 12 12 22 16 18 18 22 18 10 16 12 8 16 14 12 14 20 18 10 12 8 16 22 12 10 10 18 14 20 12 22 16 20 12 20 14 16 12 16 20 20 12 22 16 8 20 12 18 16 14 10 20 20 22 18 18 18 22 22 22 14 22 12 16 12 18 14 12 16 20 8 16 22 20 14 14 20 20 10 8 10 14 8 12 14 22 14 14 8 16 12 16 22 20 22 20 20 10 16 22 12 18 14 22 12 12 18 22 14 12 14 18 22 14 20 14 16 12 14 10 16 18 18 16 22 20 14 20 12 14 22 10 16 20 20 10 16 18 20 14 10 16 22 16 20 14 16 14 22 8 12 14 18 22 18 16 14 10 16 20 16 8 20 12 20 10 12 22 20 12 20 16 14 16 16 10 8 18 18 20 16 18 22 14 12 18 22 16 12 20 10 22 18 16 18 16 20 20 20 20 14 22 10 12 16 10 18 20 10 14 16 8 14 12 8 22 16 14 18 22 16 8 10 10 10 10 20 12 16 14 18 12 16 14 12 22 14 10 14 12 10 22 22 16 18 12 12 10 20 10 22 10 14 14 22 18 22 12 22 18 14 14 14 12 22 10 22 16 22 20 18 8 10 16 10 10 14 14 16 12 18 22 10 22 12 22 22 16 18 20 10 18 20 12 14 16 22 22 20 18 10 22 12 18 14 14 14 10 22 16 14 22 8 18 20 20 20 20 16 8 18 16 12 14 20 20 22 18 16 10 14 12 20 12 8 12 16 14 10 8 12 22 10 18 20 16 16 12 8 10 18 12 20 16 16 22 12 18 20 22 8 10 20 22 12 18 18 12 16 22 12 18 18 22 10 14 22 8 22 12 18 12 12 14 10 18 20 22 12 18 18 10 12 22 20 18 18 12 20 18 10 22 8 22 14 22 20 22 20 8 22 12 8 20 16 10 8 8 10 12 8 10 14 18 12 14 8 22 16 20 16 8 20 12 18 20 14 22 16 18 12 22 20 20 10 16 12 18 14 12 12 8 10 20 16 18 16 14 12 22 10 20 18 10 18 12 22 16 12 8 10 16 14 20 10 22 16 22 14 18 10 20 20 12 14 18 20 8 10 12 22 12 22 22 14 12 14 12 10 18 18 18 16 16 10 22 22 14 10 16 22 14 16 18 12 14 18 12 10 22 14 22 18 20 20 16 18 14 10 14 8 12 8 12 22 20 16 16 10 22 22 16 8 18 10 22 14 20 22 12 20 18 8 20 14 12 18 20 14 20 10 10 18 18 10 22 16 16 10 8 20 10 16 20 10 14 10 20 12 8 18 18 22 8 20 12 12 14 12 10 14 12 10 18 20 14 10 12 22 16 18 12 18 22 12 8 22 16 14 22 10 10 8 16 20 20 20 16 18 16 10 18 18 22 12 10 12 20 10 10 20 12 20 20 16 20 14 18 8 20 16 22 8 20 10 14 14 8 22 22 12 14 10 8 20 22 20 18 16 14 22 16 14 20 10 8 22 18 20 12 20 10 16 20 22 20 16 18 22 10 8 20 18 22 18 20 14 10 18 18 12 12 20 16 16 16 8 12 22 22 10 16 14 12 8 14 20 22 18 8 14 18 20];
cost_contract=[569 504 582 559 562 571 537 557 514 595 506 512 584 546 503 508 508 574 572 568 543 575 527 506 557 568 537 542 535 500 534 524 591 579 572 500 538 524 598 598 556 505 539 564 566 542 503 598 528 579 581 565 569 556 593 566 532 586 545 596 532 572 548 588 598 522 550 553 545 526 535 539 556 586 546 543 551 593 534 561 570 566 560 532 538 569 584 525 600 551 552 570 586 569 516 599 538 590 549 502 599 551 598 531 522 537 518 509 507 539 582 561 502 544 563 578 533 513 599 584 520 585 569 548 579 545 503 589 524 511 534 509 595 561 557 508 561 500 580 555 527 511 536 600 567 549 521 546 571 505 572 568 568 510 542 540 512 598 518 527 561 515 506 526 541 597 567 523 582 532 593 596 534 538 524 520 579 588 565 537 590 578 554 554 559 555 598 512 510 514 508 524 545 536 504 585 505 516 574 522 574 550 600 533 583 550 527 558 542 598 500 583 536 500 582 576 598 596 507 507 519 509 517 524 577 528 510 570 522 552 576 502 511 578 552 554 595 529 554 558 546 582 541 545 575 513 591 566 510 545 532 528 552 539 534 559 529 592 591 556 536 512 549 567 511 586 524 518 516 562 520 546 589 562 580 573 551 595 502 518 504 562 587 546 543 600 573 588 594 500 519 580 523 577 567 525 548 590 600 566 535 506 533 512 512 569 527 556 594 538 590 538 516 539 551 523 528 528 568 535 549 509 502 565 524 588 593 564 592 545 510 591 577 532 549 537 592 581 544 569 577 513 584 520 566 578 506 581 552 583 558 516 593 563 510 548 581 528 501 588 579 569 552 577 557 574 563 509 589 572 515 593 510 545 515 536 573 552 531 597 583 551 543 522 506 577 591 536 571 510 582 518 507 541 507 564 519 570 523 567 583 562 510 523 553 528 549 501 506 531 592 511 549 540 514 551 591 583 584 599 579 518 512 578 581 522 554 561 532 552 506 541 560 538 536 503 600 564 537 530 521 595 544 500 592 512 553 521 557 539 507 576 534 532 562 580 555 506 571 597 571 500 590 541 592 562 585 521 572 551 594 537 590 566 600 514 581 503 551 588 504 518 550 543 600 547 576 558 570 511 558 589 572 568 519 557 596 588 542 518 546 578 589 522 595 532 568 558 575 554 567 514 522 530 566 587 511 503 585 592 523 586 551 518 554 520 511 586 509 528 591 600 508 578 519 516 505 524 513 574 577 579 519 547 515 532 537 519 595 560 512 523 543 558 568 594 503 535 598 588 591 585 563 531 552 562 594 513 581 536 525 589 581 575 520 599 556 541 591 577 598 591 508 599 549 594 563 565 533 566 559 592 520 545 512 563 561 564 571 553 599 584 525 549 547 533 527 508 565 535 511 557 557 588 543 559 500 514 591 532 515 515 509 568 547 537 573 525 557 565 559 575 525 515 583 569 588 519 526 534 545 566 597 530 588 580 509 584 512 533 518 569 538 536 591 533 590 579 598 574 594 576 506 529 531 593 550 565 501 530 525 598 579 560 549 528 571 511 516 539 516 527 557 501 582 564 570 583 518 540 507 521 589 544 535 592 536 568 514 561 598 562 574 591 521 545 539 582 593 512 533 555 550 546 556 535 583 523 563 578 520 565 593 597 559 595 597 500 596 528 521 532 572 575 569 559 537 544 559 581 553 504 504 577 518 528 553 586 578 574 561 559 516 600 565 591 534 515 540 560 566 557 600 524 525 582 504 587 585 539 521 587 506 524 549 577 519 506 557 589 571 581 522 511 567 589 505 511 536 592 556 522 585 518 567 582 507 564 561 585 511 533 564 529 600 584 578 555 574 543 534 567 501 587 539 541 600 552 583 556 539 582 571 552 575 557 594 511 538 573 524 588 546 600 597 576 507 500 561 529 570 540 600 517 558 594 540 580 540 575 569 587 504 559 511 546 569 540 563 593 600 585 513 572 591 557 545 549 522 516 508 551 550 560 572 512 527 589 512 504 530 501 509 558 598 512 581 522 526 513 539 563 566 550 553 543 506 533 521 504 517 575 583 537 579 567 560 547 591 595 517 543 504 596 500 584 517 550 588 566 558 537 509 511 558 556 512 537 532 564 539 582 551 534 512 555 519 586 538 537 597 550 506 523 509 520 525 551 582 534 580 576 553 586 535 571 508 553 547 565 534 546 523 594 508 592 518 579 595 555 590 541 585 560 577 520 517 524 542 573 529 588 549 579 555 541 581 508 533 597 528 539 528 550 509 512 556 505 504 562 579 538 557 585 518 591 523 546 560 516 572 509 550 516 525 504 590 526 548 541 587 529 519 580 580 595 558 569 538 574 573 538 598 545 538 539 566 502 537 514 542 520 545 531 550 500 522 566 503 515 540 563 562 557 539 546 521 542 511 535 507 552 516 532 546 509 548 507 522 595 564 518 594 553 597 537 559 600 576 513 571 582 545 536 572 586 586 591 590 511 525 539 539 590 592 561 523 521 577 521 540 569 560 513 583 542 546 527 507 536 554 586 549 598 520 594 520 555 525 514 590 504 538 559 574 545 552 586 545 551 574 539 526 566 536 560 541 575 504 582 561 546 565 589 559 583 500 551 519 589 546 516 577 520 560 577 524 600 539 518 502 562 526 500 547 532 599 518 546 568 568 517 534 576 522 578 543 551 560 507 555 584 592 531 514 521 596 513 529 517 592 517 530 510 525 521 513 594 587 579 563 583 564 540 589 532 577 557 576 558 564 521 586 599 585 545 577 520 600 587 546 563 531 592 576 540 528 571 541 504 595 600 511 570 567 508 581 530 575 501 512 538 545 583 503 569 518 503 563 545 547 566 524 501 587 580 508 568 554 514 594 512 594 589 578 540 526 506 574 539 596 521 578 531 582 510 578 590 514 563 579 559 534 570 511 535 535 592 561 565 513 572 535 570 595 588 527 524 600 517 523 519 577 515 509 594 529 545 573 502 529 528 507 516 529 580 530 596 555 516 535 586 565 555 525 558 513 582 537 568 569 500 592 574 573 524 598 550 569 542 531 520 503 600 508 512 595 540 548 508 587 545 597 560 597 525 590 526 568 596 520 570 568 560 567 501 578 528 521 576 575 596 590 550 555 582 523 566 584 574 579 516 534 560 525 562 600 582 538 550 557 503 509 514 567 537 522 540 600 535 577 568 505 586 537 575 509 539 519 513 551 551 536 587 558 502 576 535 575 523 557 515 596 589 585 552 526 535 524 511 557 510 514 591 581 524 599 574 519 589 590 579 543 567 526 522 540 555 567 581 586 524 573 599 561 538 536 533 581 538 591 557 500 547 589 589 536 564 583 588 515 518 570 518 586 534 523 566 540 534 562 553 519 515 501 527 503 594 563 500 527 504 595 552 537 581 543 541 549 532 548 589 594 506 569 511 524 548 571 502 577 583 551 502 543 519 531 524 566 537 549 572 531 509 514 553 501 586 527 537 539 552 522 541 534 591 521 566 504 553 501 519 547 571 504 526 535 524 597 528 543 559 526 581 584 525 564 566 582 544 502 500 537 597 547 584 516 500 583 591 506 538 546 541 564 558 532 576 595 576 515 520 561 506 501 501 583 574 507 556 582 508 540 522 577 512 531 595 557 502 542 536 516 506 538 571 538 543 528 554 517 550 547 573 516 515 590 514 596 600 590 571 565 529 535 583 547 519 577 590 570 594 570 580 562 508 529 521 520 577 581 570 530 596 534 519 543 551 600 591 568 510 534 520 573 575 509 574 555 577 582 509 599 506 522 566 513 524 568 530 522 510 508 566 537 519 545 522 546 512 507 503 513 516 506 558 587 543 583 591 586 505 569 532 595 557 537 580 540 535 528 595 584 510 524 531 535 500 547 532 571 538 552 576 597 517 551 504 600 557 529 536 549 554 576 560 591 547 539 510 541 511 527 575 548 577 554 598 539 568 522 520 596 519 554 585 553 558 550 565 566 548 550 545 529 576 502 520 595 596 594 533 500 584 598 600 570 540 572 586 512 573 526 517 503 574 558 525 545 522 599 570 521 514 501 511 537 580 554 558 530 524 564 537 555 557 521 522 518 526 558 570 570 535 508 586 557 501 518 573 527 501 594 588 506 516 571 531 549 516 546 579 583 588 570 550 564 524 525 581 554 515 559 528 567 594 540 550 583 545 547 501 556 558 504 514 583 596 535 594 507 542 508 582 575 580 544 587 509 594 568 540 538 507 567 566 555 536 572 573 573 546 537 555 519 528 558 581 543 595 501 508 507 512 500 587 600 502 567 517 537 541 552 582 505 563 526 519 587 546 557 565 586 595 507 564 580 578 577 563 517 502 584 548 570 562 558 589 535 505 554 563 581 577 546 599 538 560 557 526 519 577 595 526 522 565 566 545 546 524 577 569 553 593 560 506 562 507 595 524 516 510 512 581 591 555 595 570 541 547 585 563 530 600 545 587 584 506 569 519 524 574 538 577 513 566 505 596 524 510 506 578 600 597 520 513 583 547 500 587 539 553 582 578 547 557 563 576 545 579 573 514 529 575 577 508 592 502 554 547 592 500 559 522 571 504 545 533 543 555 555 545 587 545 500 543 501 536 589 556 507 534 552 539 544 575 500 519 508 571 502 590 589 534 535 533 568 505 600 527 576 561 509 587 506 509 600 589 536 567 548 575 503 514 542 595 568 507 582 543 534 500 560 556 504 555 571 521 520 571 518 600 570 593 566 515 540 586 534 541 564 555 528 554 573 529 524 526 549 591 542 506 528 579 574 544 538 545 530 522 500 571 529 589 598 587 550 558 555 558 542 500 506 518 593 510 511 569 580 523 540 568 554 515 560 532 508 592 578 555 547 600 587 592 564 523 550 538 565 597 574 596 571 534 537 550 592 525 572 527 541 513 583 576 521 549 566 543 551 516 514 568 573 547 553 514 506 586 552 587 571 542 596 597 593 529 585 585 572 539 585 542 518 592 559 548 537 519 556 514 570 599 549 549 533 576 540 546 505 560 524 546 531 507 554 562 565 542 563 534 582 592 500 565 580 598 517 530 547 554 537 503 600 584 599 588 551 565 502 582 565 537 550 586 564 525 577 546 549 592 576 583 569 508 520 573 539 564 547 592 591 597 565 529 578 500 513 504 517 508 562 532 591 596 569 567 588 576 516 564 582 527 596 517 515 574 507 561 594 574 536 547 518 507 561 532 588 600 574 544 550 583 511 572 517 538 531 598 548 584 517 556 529 509 502 564 527 536 510 560 514 565 527 597 559 565 560 542 503 544 521 507 581 544 578 547 534 574 517 596 541 600 551 556 587 559 538 572 501 559 537 533 534 522 588 596 549 521 540 539 550 577 594 524 500 592 528 511 585 585 597 568 524 535 564 530 580 573 514 519 573 560 564 520 595 510 565 569 538 504 554 571 597 571 556 593 511 501 526 520 573 584 573 536 568 518 530 526 588 510 568 521 527 591 585 567 585 502 507 540 558 544 547 503 599 547 541 515 543 553 581 554 551 565 537 533 521 560 524 565 592 515 530 515 596 577 528 562 565 565 562 542 532 565 504 600 574 545 570 574 508 596 543 549 576 513 565 536 505 597 539 572 525 570 519 537 532 595 528 512 533 592 537 555 533 567 514 583 530 533 569 533 511 600 518 543 511 542 537 538 515 579 516 590 532 520 584 571 515 522 537 518 509 547 524 500 505 508 536 554 582 576 503 509 563 554 521 544 597 509 592 544 593 503 594 574 502 504 557 523 546 549 504 537 521 593 529 553 560 514 594 561 557 595 558 507 507 591 597 541 554 586 516 553 543 555 597 522 583 589 596 600 501 523 553 541 575 562 576 517 537 523 593 515 509 553 544 500 531 582 547 502 565 585 507 522 597 530 582 593 559 571 527 540 513 564 517 557 560 511 558 550 546 538 553 591 591 551 524 590 596 525 525 581 533 528 570 579 559 584 564 520 554 589 544 531 517 526 545 566 540 595 568 547 525 505 564 586 584 515 599 504 583 562 522 561 556 541 534 571 552 556 570 511 568 552 514 560 539 524 556 516 540 536 591 548 505 545 587 509 541 586 526 572 501 578 547 559 505 513 500 503 506 598 507 572 563 563 527 580 523 587 514 549 586 523 580 519 519 571 517 502 586 515 500 538 572 548 542 548 563 559 506 548 570 534 597 599 579 567 551 594 595 512 575 500 555 515 546 583 512 502 509 539 600 515 546 597 575 573 520 544 504 576 573 576 554 581 585 543 508 595 576 576 568 503 548 528 560 574 505 518 503 558 572 533 503 538 513 517 592 509 595 525 540 593 513 574 574 573 584 560 526 600 535 588 517 597 514 567 541 564 527 562 544 513 520 550 537 565 529 541 574 590 522 549 514 562 514 600 541 553 540 587 544 545 548 524 552 515 525 557 592 590 551 596 557 521 540 597 579 525 564 517 511 500 534 599 545 567 545 548 532 536 548 501 570 591 527 570 546 520 510 502 535 576 571 568 511 571 509 593 581 574 558 568 566 516 592 520 520 502 556 534 585 598 545 528 583 561 580 572 592 550 506 581 580 510 599 571 535 592 528 561 513 554 559 576 545 525 600 537 595 592 575 553 558 537 522 579 575 563 545 540 578 584 534 554 591 567 599 532 597 505 524 531 585 532 564 557 555 514 516 590 592 513 560 507 595 589 509 547 558 577 533 501 516 562 526 534 519 542 519 522 512 508 575 517 552 525 557 590 562 544 569 574 544 563 518 531 590 599 503 593 570 539 565 502 504 561 507 568 567 574 563 561 581 584 511 512];
country=[10 45 29 52 3 69 75 62 80 64 13 17 10 19 79 10 61 5 13 24 77 41 4 48 1 37 69 54 52 2 11 7 35 75 11 70 68 49 26 55 13 61 52 65 17 36 26 46 1 76 75 78 20 49 63 24 40 24 78 23 70 17 33 26 34 75 25 54 53 14 52 70 75 64 80 50 24 8 21 40 60 68 74 22 18 76 70 8 15 28 58 50 15 80 69 5 13 26 68 22 24 16 57 21 50 69 23 56 1 11 16 36 56 35 44 65 25 30 17 31 68 13 0 35 37 68 27 25 21 63 17 71 18 52 9 51 39 4 16 43 40 23 29 48 60 38 2 60 77 24 36 48 72 8 63 32 42 2 31 61 55 32 62 39 5 80 38 47 67 44 54 76 43 55 56 37 73 35 17 50 63 63 70 30 32 4 20 56 28 73 60 43 41 34 26 2 14 28 19 4 16 57 60 5 36 64 75 0 0 25 11 38 16 36 57 13 63 34 57 3 57 30 56 29 42 11 9 19 71 47 10 31 21 38 75 49 24 48 27 40 71 67 40 35 24 68 27 46 40 43 49 57 22 72 61 36 44 62 8 69 1 35 2 22 27 61 25 24 74 73 47 58 55 34 10 28 47 49 10 26 19 51 43 48 53 52 51 4 74 5 23 33 62 63 28 76 29 21 53 29 7 8 8 19 46 46 6 48 31 60 19 50 75 64 4 64 77 19 37 9 5 78 5 2 0 23 4 57 73 20 72 52 37 44 40 5 40 74 35 55 66 9 61 76 26 7 40 73 20 64 0 32 48 38 57 31 75 3 3 0 73 78 6 52 59 57 5 67 12 69 13 66 8 71 53 53 79 77 30 46 30 24 46 52 21 7 11 79 24 24 10 32 25 0 66 80 67 0 12 51 41 28 6 64 12 49 69 21 14 80 15 60 1 70 77 78 2 62 75 34 31 33 34 13 12 14 33 76 47 14 35 24 41 66 46 30 9 51 16 7 72 69 53 70 39 43 63 3 4 17 0 23 61 65 36 18 40 12 57 13 77 59 49 54 75 60 63 71 45 61 25 71 51 57 70 55 18 55 36 11 40 53 56 50 27 5 69 60 12 67 44 60 51 20 63 46 66 12 47 30 31 42 68 75 0 18 68 61 34 31 66 59 50 58 6 66 31 15 56 37 65 63 6 39 21 76 7 74 25 3 20 41 65 38 72 69 56 78 43 52 78 71 11 77 40 53 77 39 6 11 80 2 23 13 42 36 62 64 14 13 21 79 50 23 47 13 71 0 21 48 5 80 3 58 9 78 54 7 35 52 13 54 58 13 33 77 34 38 62 45 36 64 22 17 32 79 55 55 56 50 20 16 3 78 48 39 39 19 23 78 22 16 41 56 10 71 60 62 10 80 5 34 14 38 19 46 65 39 34 65 69 3 46 70 49 26 21 30 57 8 80 28 28 80 3 6 40 1 59 70 61 48 20 76 36 46 57 64 16 80 32 53 72 37 63 37 23 58 20 3 52 57 5 28 28 30 43 4 35 41 71 51 38 45 0 54 27 48 25 2 17 23 38 36 0 18 41 17 34 26 74 11 28 20 36 35 66 73 72 75 65 34 3 63 54 29 11 46 35 2 0 64 79 19 12 10 16 53 63 16 43 74 44 23 1 55 6 69 20 26 77 74 48 13 39 53 71 67 18 71 67 11 17 70 38 19 12 49 17 71 54 28 0 32 22 25 55 57 17 70 8 51 9 16 54 49 69 28 16 28 67 68 52 71 24 67 72 25 25 0 40 27 73 8 49 67 33 50 8 79 5 0 18 40 36 75 66 31 51 63 7 18 20 75 6 13 57 31 6 9 18 25 7 74 46 4 7 42 56 44 63 25 51 3 42 36 63 32 7 41 67 56 72 48 16 12 2 8 6 54 45 74 5 75 49 77 52 39 65 20 44 43 54 54 3 26 53 58 18 79 40 42 7 20 43 21 70 48 13 19 23 61 17 5 6 22 24 22 43 23 50 53 48 16 77 6 12 1 47 73 36 3 51 57 66 13 53 61 58 21 9 3 75 28 6 36 3 59 36 10 44 28 34 6 13 50 1 56 74 68 11 26 41 75 13 22 53 21 76 49 78 50 49 27 49 48 33 67 22 67 47 30 63 17 20 6 27 24 61 76 35 30 51 16 17 51 43 21 21 14 10 64 44 46 69 27 79 7 10 19 78 75 36 56 1 47 3 70 46 26 13 26 52 33 73 46 76 64 24 73 24 73 31 31 57 70 56 79 73 48 27 72 74 24 10 56 52 13 19 77 74 80 72 63 47 52 75 40 12 41 51 5 9 23 8 36 61 75 72 42 53 6 75 55 53 30 10 80 60 11 27 55 74 44 37 23 28 2 10 27 31 6 14 52 11 44 31 34 31 5 22 56 39 42 2 39 67 53 56 58 38 73 24 66 53 34 73 50 33 23 12 56 19 38 19 76 31 28 44 52 22 66 10 50 25 28 66 65 59 64 14 67 2 65 16 32 70 37 47 17 33 36 28 34 27 53 14 34 76 63 48 31 37 21 7 64 55 66 5 10 11 7 71 36 34 22 78 37 53 58 80 80 8 75 7 7 8 10 14 11 59 77 9 57 16 22 80 65 72 23 74 30 70 39 21 26 6 6 57 55 14 15 52 50 18 74 69 65 14 42 71 76 16 7 2 9 22 80 78 35 47 66 50 17 79 70 15 44 41 57 16 40 79 46 78 17 47 12 45 71 57 74 6 41 26 46 60 20 64 41 26 66 47 16 9 73 12 58 16 11 54 28 39 38 40 70 29 6 65 48 52 50 8 10 63 58 60 49 70 57 29 52 14 14 37 50 17 53 61 29 7 68 51 19 71 1 51 15 4 41 66 63 76 66 3 67 20 10 57 1 45 65 3 63 72 33 21 50 66 78 19 3 58 30 63 77 61 73 54 37 66 31 6 5 28 12 47 60 41 44 21 59 65 60 78 20 34 18 1 16 2 48 76 21 23 61 52 39 80 51 41 47 23 80 23 1 52 51 21 55 24 75 80 10 73 66 27 41 37 6 52 16 52 51 19 18 75 5 11 42 31 65 53 9 23 53 65 62 78 80 21 76 80 0 23 30 36 37 1 7 33 65 56 15 4 73 59 77 22 2 79 73 63 80 48 17 49 55 79 46 74 71 9 74 11 54 59 77 6 51 31 36 26 74 40 76 41 43 72 51 37 80 44 74 68 48 7 20 69 76 5 52 35 19 22 41 75 50 29 68 27 16 10 35 20 52 47 16 73 63 0 46 42 33 56 63 75 51 66 7 36 33 54 36 21 22 78 6 73 37 30 25 10 70 3 36 5 37 40 71 39 29 52 11 24 32 79 16 41 56 60 40 34 71 20 57 20 76 68 73 46 77 20 31 26 9 6 56 56 43 25 21 12 53 77 79 6 73 16 74 1 78 30 5 15 73 44 34 0 1 63 17 43 45 30 64 45 66 56 71 79 8 19 61 69 69 43 3 32 56 7 73 76 35 58 4 78 39 75 61 62 49 42 38 29 2 3 35 64 7 53 55 12 21 3 66 22 16 19 59 7 26 79 18 23 35 24 19 20 72 16 54 30 47 69 8 58 36 61 36 50 56 32 79 52 74 26 4 58 33 27 10 59 47 44 69 48 24 2 56 42 39 23 20 51 54 69 43 1 53 62 10 27 17 0 31 7 31 45 14 23 6 67 64 1 70 26 24 72 80 23 17 31 38 34 77 36 28 58 37 61 69 28 63 15 22 65 44 29 21 19 70 22 71 32 20 2 4 65 32 62 26 17 16 80 11 61 54 11 19 60 59 22 64 78 57 28 41 60 55 5 2 8 58 57 73 39 38 56 72 66 23 12 78 28 10 32 48 13 7 55 73 45 23 37 46 7 19 20 72 34 19 1 13 37 32 5 49 62 68 15 7 80 44 34 22 72 4 59 78 72 38 3 60 39 59 53 62 4 66 12 26 27 76 5 75 23 13 78 8 55 22 3 2 72 70 61 36 71 48 16 29 49 73 76 53 8 79 33 29 40 20 15 80 47 50 27 40 70 22 61 75 7 38 27 8 2 78 19 62 26 6 7 26 38 43 27 15 3 33 31 42 7 74 36 47 14 18 44 52 62 80 37 13 48 69 74 76 19 65 73 39 14 18 13 18 59 19 29 7 21 55 15 30 39 48 56 46 14 45 42 64 77 49 53 68 63 39 60 1 36 12 75 40 74 71 11 27 10 80 11 35 62 13 31 47 16 69 25 15 20 10 79 23 79 6 55 75 65 15 55 9 63 32 36 24 70 35 62 26 45 23 30 77 43 57 4 57 61 31 36 32 60 2 2 74 3 42 60 72 45 21 50 62 22 58 7 10 16 49 2 78 64 51 28 4 68 50 2 23 39 79 42 28 72 0 6 34 69 56 10 65 33 65 13 9 44 49 21 57 50 5 33 52 56 22 80 35 74 47 66 41 52 7 75 65 15 36 21 61 23 30 8 59 59 39 68 53 41 8 57 22 29 80 55 5 60 68 37 3 44 21 78 66 5 11 6 49 71 54 9 14 54 80 79 57 34 16 64 9 27 2 31 5 27 42 64 39 66 28 48 22 40 43 17 60 47 23 60 59 10 68 68 53 46 74 54 77 71 73 46 36 48 8 45 13 56 52 3 15 1 57 68 12 3 17 32 39 36 56 8 79 3 46 56 17 78 21 61 76 60 46 7 4 42 10 45 34 24 67 10 77 20 34 60 18 21 12 25 39 51 63 18 75 10 24 45 45 46 63 24 62 46 75 34 10 46 50 25 25 21 74 47 44 40 42 54 11 60 6 36 80 19 60 6 17 66 80 24 41 53 37 6 76 64 71 25 48 47 23 58 3 21 54 52 52 59 16 47 0 73 17 6 12 78 70 41 63 71 30 79 4 62 5 10 78 28 24 14 70 57 16 21 22 76 49 74 70 53 6 17 80 42 7 56 7 20 28 69 78 17 69 46 41 21 17 75 47 0 71 38 28 49 34 38 33 65 71 51 61 19 19 27 59 39 16 12 26 59 32 66 18 44 73 0 75 73 3 66 31 12 28 23 52 43 24 47 5 70 32 10 10 3 0 17 11 46 40 26 27 18 37 55 62 41 57 0 58 58 69 36 0 75 6 35 17 19 62 44 77 57 66 37 20 20 45 32 33 51 65 67 24 21 45 56 74 47 46 4 74 40 45 14 39 78 19 67 78 23 28 68 11 38 2 7 64 80 66 58 59 10 71 68 40 26 18 25 65 43 71 70 74 5 7 26 55 52 56 13 78 34 67 63 7 2 40 36 46 47 80 72 23 16 34 47 42 78 5 29 76 59 60 47 21 14 58 53 24 48 18 40 29 44 26 71 43 41 40 25 17 13 35 27 46 64 50 67 53 52 51 59 4 37 0 43 48 31 21 16 39 4 33 33 19 4 49 50 62 52 20 3 12 27 38 18 60 66 36 80 60 80 61 2 48 1 70 17 8 33 61 45 18 57 66 27 39 26 4 41 79 12 32 65 24 54 59 12 61 5 21 22 17 70 50 45 56 57 31 62 19 29 29 39 78 46 45 35 62 30 15 28 76 7 63 43 32 43 7 11 51 64 62 71 26 67 52 16 10 68 24 47 70 58 13 32 40 1 64 72 55 56 14 71 4 50 57 54 48 74 34 25 22 60 20 79 52 25 2 50 30 61 30 76 29 52 21 10 68 41 50 5 50 29 5 56 10 65 76 78 58 18 47 30 28 69 1 72 72 76 43 14 66 2 20 77 67 31 74 30 28 62 39 61 27 54 69 12 22 50 49 17 10 15 67 30 16 9 57 61 55 16 74 23 77 59 14 64 39 69 64 29 68 57 0 60 33 61 14 32 66 39 18 50 30 80 17 56 54 71 69 21 23 58 18 0 34 6 22 51 66 43 38 31 5 21 61 79 80 7 40 13 62 68 34 24 32 36 9 63 11 75 79 10 76 24 32 54 12 68 58 69 38 32 53 37 6 80 20 19 2 5 19 36 44 47 7 2 22 72 31 75 57 56 60 63 34 19 25 14 59 4 40 66 31 30 50 55 9 37 59 63 55 4 35 38 73 8 76 45 61 13 62 52 59 56 35 72 51 11 74 4 8 14 32 40 46 39 69 39 64 0 40 18 63 39 37 21 54 31 60 70 35 38 80 70 16 61 51 7 75 9 64 15 76 61 54 63 78 54 48 72 33 38 68 0 6 5 56 31 33 26 48 37 75 37 39 51 53 27 18 33 15 46 3 36 65 10 70 28 11 37 33 48 12 11 37 73 17 21 61 12 78 55 14 12 6 56 44 70 40 8 65 1 61 69 8 61 2 74 69 50 3 49 40 40 25 6 12 67 71 10 75 7 62 27 21 0 54 63 24 34 58 22 74 4 30 12 79 43 60 26 24 68 37 72 59 71 28 61 20 49 70 22 28 24 29 64 50 39 37 77 80 63 13 3 37 33 50 17 45 74 49 22 11 70 48 73 42 25 7 25 45 78 65 13 9 7 36 26 68 51 62 50 48 68 62 3 54 34 17 10 32 55 77 31 40 60 13 40 38 11 80 18 53 45 23 71 27 36 38 1 57 24 64 46 27 69 74 43 70 4 58 26 54 66 19 59 49 38 12 6 42 43 19 8 30 69 35 58 52 44 12 27 24 32 46 31 15 75 36 51 26 60 7 36 43 39 8 0 45 72 54 79 68 6 48 73 66 22 63];
cost_worker=[38 39 40 46 25 47 38 37 29 26 48 29 39 36 24 23 40 33 34 22 29 31 33 50 22 35 29 41 38 39 48 22 49 33 47 42 47 34 44 35 34 41 31 38 24 26 28 34 27 48 30 45 21 28 36 33 38 37 50 47 48 44 39 32 46 47 34 42 40 47 26 43 23 26 50 43 32 30 31 23 48 33 39 46 31 37 31 30 31 27 40 41 38 50 27 35 29 36 41 33 24 50 43 34 33 22 29 50 22 32 24 27 34 48 37 33 47 21 42 42 43 20 28 40 22 39 41 45 24 42 26 44 40 36 26 24 47 34 50 38 22 49 37 35 37 48 43 35 37 23 38 49 50 26 38 46 31 34 37 43 50 29 40 44 40 48 26 29 49 26 26 41 36 36 37 23 37 25 32 34 34 22 41 23 45 41 50 36 31 38 31 49 30 46 21 23 33 34 38 35 44 33 44 21 32 42 29 23 30 33 20 20 22 38 41 34 43 45 35 38 47 43 32 41 28 21 34 27 35 45 30 21 50 41 23 44 39 43 42 50 24 34 26 33 38 46 45 47 36 32 50 24 41 41 42 23 38 24 21 35 45 24 28 22 43 24 46 42 25 45 42 37 22 42 23 30 45 28 36 42 44 44 24 33 41 36 37 23 40 47 34 24 21 28 28 24 39 32 38 24 40 47 29 37 37 23 47 46 38 33 36 50 41 24 30 38 22 27 40 24 43 31 48 22 41 48 32 24 33 35 35 46 34 46 43 39 26 45 29 29 34 48 40 32 39 34 36 29 35 44 44 20 36 40 25 42 29 43 26 30 25 47 33 47 24 30 38 23 44 42 21 22 36 25 50 33 48 24 50 43 34 46 42 25 33 28 43 38 27 43 37 42 20 28 38 44 24 40 32 27 33 48 38 45 44 37 41 45 45 47 33 36 43 45 29 33 48 41 21 27 40 44 39 25 22 39 39 23 20 40 25 30 49 23 50 27 20 46 46 46 47 28 24 24 24 50 23 49 49 38 40 24 26 45 27 41 27 45 38 44 47 47 22 32 32 49 40 24 30 50 28 41 20 42 29 30 47 42 42 22 30 50 46 47 42 26 40 31 47 49 50 41 45 35 40 38 40 27 27 46 39 24 21 35 49 24 36 40 27 26 38 26 41 31 49 42 31 21 48 44 48 22 42 24 39 24 25 37 31 20 30 28 20 21 41 41 34 22 36 49 22 33 48 47 48 30 43 20 23 35 40 24 33 39 47 49 42 50 45 37 48 35 31 50 39 40 31 44 28 36 38 34 37 27 48 24 43 40 43 23 25 32 20 21 48 47 22 41 35 47 20 29 50 36 22 20 39 25 43 31 20 47 49 28 39 38 27 44 49 28 25 46 22 29 29 45 23 49 28 39 41 23 20 20 23 42 24 43 21 45 32 22 38 49 23 28 20 25 30 21 31 23 40 27 30 21 43 43 41 46 43 38 26 25 31 46 26 22 36 49 37 20 32 47 47 35 22 21 23 25 43 25 46 23 46 32 47 37 40 21 38 20 26 43 28 49 39 26 39 49 47 37 35 49 27 25 38 42 25 41 33 40 24 40 22 46 20 38 48 41 30 45 37 36 29 35 31 44 49 26 31 32 36 21 50 37 36 29 24 42 38 24 39 44 23 39 33 32 37 25 40 22 35 45 37 48 35 29 26 48 21 20 46 41 26 30 26 47 48 28 33 30 24 37 49 30 50 25 23 32 44 37 29 37 36 48 36 40 22 50 28 30 43 43 38 42 30 39 26 25 20 31 41 20 28 31 31 24 36 35 27 26 24 45 44 32 44 27 47 44 29 42 28 29 31 37 25 20 49 27 28 47 42 36 45 22 23 26 40 45 48 37 29 39 21 24 43 42 42 21 24 24 43 35 43 43 25 50 49 45 42 41 46 21 45 32 35 38 46 45 32 29 45 29 45 23 22 30 26 20 45 23 42 36 22 27 23 39 27 39 42 29 31 41 23 38 36 40 50 49 25 43 34 38 34 46 48 49 46 40 31 21 30 32 49 26 36 48 31 46 49 43 31 42 37 47 47 36 37 34 27 38 20 40 34 34 35 40 34 42 47 35 24 46 40 28 42 27 37 27 46 48 30 34 33 46 38 34 47 33 33 47 46 22 41 43 28 25 43 34 26 39 49 40 20 26 30 31 49 49 46 40 20 42 34 23 21 50 34 23 40 35 26 48 32 40 32 43 45 43 47 28 38 40 46 30 34 26 21 43 26 45 32 36 21 49 36 44 33 46 25 43 44 29 34 29 27 50 49 26 45 49 23 42 24 25 20 41 35 24 35 20 44 38 34 45 44 48 38 25 47 36 20 23 33 35 29 47 34 20 22 31 40 20 28 22 42 45 46 37 42 24 29 50 25 25 50 41 25 22 24 47 44 46 42 27 22 46 23 48 46 48 44 27 29 20 41 41 41 45 20 25 41 31 30 36 39 39 50 20 29 37 25 48 37 30 21 26 41 48 34 37 45 40 33 30 21 49 28 50 24 26 37 38 42 21 23 39 30 29 21 48 30 20 22 37 22 31 23 48 35 44 20 48 27 27 32 38 40 47 25 44 35 37 25 35 25 43 24 22 33 31 21 29 23 29 47 49 20 42 43 40 46 21 38 47 25 34 29 20 31 49 33 32 42 22 25 41 47 21 22 45 48 42 26 43 24 48 44 36 49 30 26 46 24 27 24 46 30 42 32 20 50 20 34 32 23 25 30 35 46 29 42 32 32 38 21 47 31 47 26 45 38 50 26 46 40 50 44 45 31 33 30 20 25 28 22 24 33 28 46 50 48 36 37 26 46 26 43 42 27 48 41 23 44 49 38 31 39 34 21 22 41 36 26 26 25 30 31 48 46 40 25 47 30 42 33 39 38 36 28 41 23 24 29 30 43 32 24 22 24 42 40 32 29 50 21 33 29 34 46 22 30 45 29 29 41 39 36 21 50 24 33 32 26 48 48 21 39 23 48 43 28 44 21 20 27 38 21 36 31 20 42 47 38 38 24 43 32 28 21 32 44 47 44 46 35 46 46 41 45 40 26 37 36 30 23 25 28 23 30 35 43 29 50 29 39 27 40 22 39 49 35 50 25 46 47 40 24 46 24 28 31 40 25 42 37 30 34 50 47 40 31 20 28 22 37 47 38 36 33 26 29 47 38 32 31 44 42 49 29 43 36 39 39 40 24 48 49 26 27 38 24 39 46 25 49 26 49 28 36 29 33 42 35 37 44 31 27 37 33 41 30 20 34 45 46 26 26 32 21 26 44 46 50 22 21 34 39 41 44 36 24 35 45 34 49 35 24 36 32 34 41 42 41 29 37 30 22 42 29 43 24 23 39 22 24 31 26 35 20 20 35 33 25 37 44 21 27 31 50 46 36 34 22 36 27 22 42 29 20 22 44 50 32 49 34 30 27 39 34 34 47 25 33 47 31 50 40 25 31 48 41 43 41 43 40 29 38 46 36 24 44 29 36 25 20 49 43 33 42 33 25 29 37 36 47 27 46 24 20 49 40 24 45 39 46 39 24 21 42 47 28 41 48 32 38 49 42 30 43 44 28 34 24 34 38 44 49 43 35 23 45 25 30 49 46 47 30 48 40 43 32 40 22 23 45 45 22 27 50 34 35 47 24 35 39 28 32 26 23 35 43 21 42 38 37 49 47 26 44 27 24 26 23 31 23 36 50 40 30 20 48 46 24 33 32 32 24 36 47 22 49 40 49 20 40 34 20 36 44 27 44 41 38 48 20 35 22 31 50 30 25 20 45 29 40 40 43 43 20 47 31 38 36 44 28 44 39 47 43 48 24 50 24 29 39 36 38 46 49 36 37 46 41 21 46 32 24 35 40 32 47 46 40 42 45 48 28 27 49 43 49 41 35 31 39 33 20 32 33 30 39 27 29 22 26 39 30 43 43 50 28 41 32 32 44 27 36 44 48 32 30 50 34 34 25 40 38 29 27 33 29 35 26 42 21 37 26 34 32 26 46 50 49 41 30 39 49 24 27 25 20 46 29 28 37 46 22 49 43 37 33 38 36 44 37 33 36 20 20 47 26 35 48 31 45 45 43 49 24 30 48 37 23 30 46 28 49 46 35 41 41 23 42 24 20 40 25 42 24 47 25 20 50 23 37 43 49 44 39 30 26 21 32 36 39 49 39 36 31 28 40 28 47 35 48 29 49 31 33 39 39 25 22 32 29 26 39 37 50 28 25 27 41 44 37 22 20 42 29 46 47 37 20 20 44 21 27 48 20 37 44 44 27 37 44 44 28 50 33 30 42 33 49 21 40 30 47 29 24 32 22 40 37 40 34 37 31 24 29 49 28 37 32 31 45 49 44 50 44 40 34 23 23 29 32 26 37 49 45 46 25 34 37 21 20 41 41 46 30 32 35 23 21 41 27 26 36 31 30 34 28 47 39 29 21 43 22 21 24 31 31 22 50 35 29 44 36 34 30 29 31 45 31 41 30 32 28 34 41 27 27 32 20 49 34 37 46 39 47 23 30 21 37 46 23 20 20 26 38 35 21 20 46 49 46 31 22 45 50 42 44 38 33 31 44 36 22 36 37 42 20 34 21 39 39 36 33 25 33 25 30 22 50 29 37 48 44 49 21 20 44 30 32 34 35 47 20 36 39 39 41 21 29 25 29 50 33 49 48 24 24 20 23 50 24 37 21 49 27 29 33 42 22 50 25 25 46 28 37 47 25 22 36 50 38 31 41 22 33 44 34 37 26 43 46 26 28 25 37 40 42 41 32 31 46 24 22 39 42 22 20 46 20 45 44 42 49 38 41 22 30 43 39 23 31 49 24 28 42 29 28 44 37 29 45 46 44 37 28 36 35 36 28 30 46 20 20 33 34 39 41 34 31 27 40 43 29 34 38 30 27 41 20 20 27 47 41 46 32 20 42 40 26 21 43 20 38 46 24 40 24 21 43 25 45 21 20 25 23 26 24 43 36 22 47 24 21 38 50 32 20 39 41 26 45 39 44 20 20 43 36 24 22 20 45 33 42 34 23 28 21 21 27 25 46 23 27 45 50 31 29 47 21 27 31 50 37 26 30 37 31 40 47 29 29 26 45 40 21 33 32 30 31 31 45 31 35 29 35 47 41 45 37 32 20 37 28 21 33 35 28 29 21 40 28 22 27 27 24 34 43 32 46 22 47 41 30 47 39 44 35 33 33 45 38 43 39 30 47 23 46 23 44 41 37 40 20 35 32 40 41 27 27 40 34 45 41 40 23 25 37 28 29 23 34 26 35 35 39 26 30 44 30 33 33 32 43 20 39 45 25 37 20 28 35 22 45 28 42 21 22 49 43 43 36 25 47 45 42 46 46 50 43 21 33 31 26 44 50 48 45 49 20 24 42 29 24 22 31 36 24 40 29 41 50 39 35 29 20 25 27 39 26 32 25 48 36 44 32 45 49 33 29 50 29 33 34 41 36 23 31 35 27 43 23 24 49 43 44 41 45 48 38 36 43 27 41 29 27 30 40 29 37 24 48 23 27 46 40 48 50 47 29 34 35 34 38 21 20 50 41 34 26 30 24 26 27 42 21 46 45 29 40 30 24 50 39 50 35 41 48 33 44 21 39 30 24 34 25 20 31 30 22 28 39 20 37 48 45 37 31 33 43 29 27 21 50 23 43 40 24 40 27 20 50 28 36 21 28 44 33 34 28 44 25 22 25 23 48 31 20 36 44 39 47 36 50 47 37 39 30 21 28 24 49 28 44 49 20 22 21 27 35 36 37 35 26 23 34 35 20 42 24 22 40 49 43 29 40 40 34 28 44 40 37 32 49 43 37 39 47 24 48 24 45 31 20 32 27 32 36 46 25 29 33 38 27 41 48 20 39 23 22 36 25 24 38 25 39 21 42 22 27 44 29 29 24 48 25 20 42 34 25 33 26 24 25 29 42 31 37 31 30 41 45 36 29 37 49 24 22 49 30 33 20 34 49 29 25 46 36 29 45 26 20 39 29 46 46 21 20 23 50 33 32 28 20 43 48 25 36 26 43 21 50 50 20 31 29 32 48 28 26 36 37 27 33 45 30 45 21 28 48 43 23 26 38 42 48 33 48 27 40 26 21 42 24 49 47 33 49 27 49 45 50 46 35 22 41 29 32 26 25 25 21 28 39 46 44 26 37 24 45 47 26 47 35 37 20 46 44 25 34 32 43 34 21 29 41 47 36 24 47 38 33 29 33 23 46 50 30 33 45 23 20 25 26 26 24 35 43 23 35 35 26 22 48 43 38 34 22 20 34 37 21 50 28 29 23 39 48 40 40 43 24 46 22 47 32 25 26 40 35 41 43 26 38 44 48 25 21 38 49 34 39 29 25 27 32 43 25 42 43 31 39 41 42 49 37 32 28 50 35 49 41 20 46 37 45 47 48 48 37 36 21 47 30 27 20 28 32 49 27 44 42 38 38 29 21 24 40 29 33 42 25 46 43 32 45 22 38 25 37 26 32 48 30 42 42 44 45 38 34 50 50 42 44 34 44 23 33 48 21 45 24 45 25 38 50 22 28 27 22 24 38 26 27 44 27 23 31 44 36 26 23 35 44 37 36 33 28 20 38 39 23 39 37 46 34 41 49 27 22 38 24 25 40 44 32 43 23 22 33 24 23 25 43 24 23 32 20 41 29 26 44 22 38 46 36 29 21 46 24 27 43 28 30 27 42 50 22 42 48 35 37 37 49 23 40 34 41 32 37 45 26 22 23 44];
