oplrun Project.mod ./InstanceGenerator/instances/instance_big_1.dat

<<< setup


<<< generate

Tried aggregator 1 time.
MIP Presolve eliminated 201895 rows and 0 columns.
MIP Presolve modified 1921 coefficients.
Reduced MIP has 16082 rows, 16000 columns, and 76000 nonzeros.
Reduced MIP has 8000 binaries, 8000 generals, 0 SOSs, and 0 indicators.
Presolve time = 0,79 sec. (884,64 ticks)
Found incumbent of value 53142,000000 after 0,83 sec. (910,40 ticks)
Probing fixed 0 vars, tightened 563 bounds.
Probing time = 0,48 sec. (172,94 ticks)
Tried aggregator 1 time.
MIP Presolve modified 4331 coefficients.
Reduced MIP has 16082 rows, 16000 columns, and 76000 nonzeros.
Reduced MIP has 8000 binaries, 8000 generals, 0 SOSs, and 0 indicators.
Presolve time = 0,11 sec. (93,60 ticks)
Probing time = 0,03 sec. (18,15 ticks)
Clique table members: 259.
MIP emphasis: balance optimality and feasibility.
MIP search method: dynamic search.
Parallel mode: deterministic, using up to 4 threads.
Root relaxation solution time = 0,51 sec. (417,96 ticks)

        Nodes                                         Cuts/
   Node  Left     Objective  IInf  Best Integer    Best Bound    ItCnt     Gap

*     0+    0                        53142,0000        0,0000           100,00%
*     0+    0                        52596,0000        0,0000           100,00%
*     0+    0                        52505,0000        0,0000           100,00%
*     0+    0                        52414,0000        0,0000           100,00%
*     0+    0                        52323,0000        0,0000           100,00%
*     0+    0                        52232,0000        0,0000           100,00%
*     0+    0                        52141,0000        0,0000           100,00%
*     0+    0                        52050,0000        0,0000           100,00%
*     0+    0                        51959,0000        0,0000           100,00%
*     0+    0                        51868,0000        0,0000           100,00%
      0     0     4212,7469    23    51868,0000     4212,7469       26   91,88%
*     0+    0                         6733,0000     4212,7469            37,43%
      0     0     4249,9440    18     6733,0000      Cuts: 24      144   36,88%
      0     0     4270,2040    20     6733,0000      Cuts: 24      165   36,58%
      0     0     4286,6045    20     6733,0000      Cuts: 24      262   36,33%
*     0+    0                         6489,0000     4286,6045            33,94%
*     0+    0                         6484,0000     4286,6045            33,89%
*     0+    0                         6465,0000     4286,6045            33,70%
      0     0     4295,1007    22     6465,0000      Cuts: 24      284   33,56%
      0     0     4307,0896    22     6465,0000      Cuts: 23      302   33,38%
      0     0     4330,3731    21     6465,0000      Cuts: 24      363   33,02%
      0     0     4342,7164    24     6465,0000      Cuts: 24      382   32,83%
      0     0     4353,2500    16     6465,0000      Cuts: 25      451   32,66%
      0     0     4373,0000    16     6465,0000      Cuts: 24      537   32,36%
      0     0     4389,1147    20     6465,0000      Cuts: 23      681   32,11%
      0     0     4411,9534    21     6465,0000      Cuts: 27      763   31,76%
      0     0     4420,5784    19     6465,0000      Cuts: 26      789   31,62%
      0     0     4426,3750    20     6465,0000      Cuts: 24      868   31,53%
      0     0     4432,6045    19     6465,0000      Cuts: 27      888   31,44%
      0     0     4439,6931    19     6465,0000      Cuts: 24      918   31,33%
      0     0     4448,5886    21     6465,0000      Cuts: 24      945   31,19%
*     0+    0                         6459,0000     4448,5886            31,13%
      0     0     4458,0159    20     6459,0000      Cuts: 27      969   30,98%
      0     0     4468,4487    19     6459,0000      Cuts: 27     1000   30,82%
      0     0     4482,0886    19     6459,0000      Cuts: 24     1132   30,61%
      0     0     4496,5578    19     6459,0000      Cuts: 24     1193   30,38%
      0     0     4506,3862    23     6459,0000      Cuts: 24     1217   30,23%
      0     0     4515,2920    21     6459,0000      Cuts: 27     1238   30,09%
      0     0     4523,2453    19     6459,0000      Cuts: 25     1259   29,97%
      0     0     4528,2136    20     6459,0000      Cuts: 24     1276   29,89%
*     0+    0                         6450,0000     4528,2136            29,80%
      0     0     4533,1045    21     6450,0000      Cuts: 27     1295   29,72%
*     0+    0                         6446,0000     4533,1045            29,68%
      0     0     4543,1250    18     6446,0000      Cuts: 26     1321   29,52%
      0     0     4551,4851    19     6446,0000      Cuts: 27     1341   29,39%
      0     0     4558,5159    21     6446,0000      Cuts: 24     1367   29,28%
*     0+    0                         6443,0000     4558,5159            29,25%
      0     0     4565,0000    20     6443,0000      Cuts: 27     1442   29,15%
      0     0     4576,3237    19     6443,0000      Cuts: 27     1465   28,97%
      0     0     4587,3125    20     6443,0000      Cuts: 24     1488   28,80%
      0     0     4594,5159    19     6443,0000      Cuts: 25     1510   28,69%
      0     0     4603,1147    19     6443,0000      Cuts: 24     1536   28,56%
      0     0     4608,0886    19     6443,0000      Cuts: 24     1560   28,48%
      0     0     4613,3078    19     6443,0000      Cuts: 23     1584   28,40%
      0     0     4618,4897    19     6443,0000      Cuts: 24     1609   28,32%
      0     0     4627,9011    19     6443,0000      Cuts: 23     1677   28,17%
      0     0     4634,1772    19     6443,0000      Cuts: 24     1701   28,07%
      0     0     4639,2136    19     6443,0000      Cuts: 24     1732   28,00%
      0     0     4644,0681    21     6443,0000      Cuts: 24     1774   27,92%
      0     0     4651,3965    21     6443,0000      Cuts: 25     1825   27,81%
      0     0     4659,2976    21     6443,0000      Cuts: 26     1850   27,68%
      0     0     4668,4011    20     6443,0000      Cuts: 27     1950   27,54%
      0     0     4677,5056    21     6443,0000      Cuts: 27     2008   27,40%
      0     0     4689,6409    21     6443,0000      Cuts: 26     2033   27,21%
      0     0     4697,9795    20     6443,0000      Cuts: 27     2078   27,08%
      0     0     4707,3601    21     6443,0000      Cuts: 27     2147   26,94%
      0     0     4717,3745    23     6443,0000      Cuts: 27     2225   26,78%
      0     0     4727,7246    21     6443,0000      Cuts: 28     2260   26,62%
      0     0     4736,6250    20     6443,0000      Cuts: 26     2350   26,48%
      0     0     4740,8365    23     6443,0000      Cuts: 27     2383   26,42%
      0     0     4748,0088    23     6443,0000      Cuts: 27     2407   26,31%
      0     0     4754,0685    20     6443,0000      Cuts: 28     2485   26,21%
      0     0     4759,1875    23     6443,0000      Cuts: 26     2568   26,13%
      0     0     4767,1229    19     6443,0000      Cuts: 28     2754   26,01%
      0     0     4776,2373    20     6443,0000      Cuts: 25     2879   25,87%
      0     0     4783,7288    16     6443,0000      Cuts: 26     2985   25,75%
      0     0     4788,1698    22     6443,0000      Cuts: 23     3084   25,68%
      0     0     4793,1988    21     6443,0000      Cuts: 25     3142   25,61%
      0     0     4798,2708    21     6443,0000      Cuts: 26     3176   25,53%
      0     0     4801,9545    19     6443,0000      Cuts: 23     3211   25,47%
      0     0     4812,8890    19     6443,0000      Cuts: 26     3478   25,30%
*     0+    0                         6430,0000     4812,8890            25,15%
      0     0     4820,8614    20     6430,0000      Cuts: 25     3546   25,03%
*     0+    0                         6415,0000     4820,8614            24,85%
      0     0     4829,3181    21     6415,0000      Cuts: 27     3595   24,72%
      0     0     4832,9968    20     6415,0000      Cuts: 26     3632   24,66%
      0     0     4837,3852    23     6415,0000      Cuts: 25     3663   24,59%
      0     0     4843,2665    20     6415,0000      Cuts: 26     3728   24,50%
      0     0     4849,4126    21     6415,0000      Cuts: 27     3767   24,41%
      0     0     4855,4333    21     6415,0000      Cuts: 26     3803   24,31%
      0     0     4857,7983    19     6415,0000      Cuts: 26     3839   24,27%
      0     0     4861,5683    16     6415,0000      Cuts: 29     3868   24,22%
      0     0     4865,3205    22     6415,0000      Cuts: 25     3924   24,16%
      0     0     4869,7963    21     6415,0000      Cuts: 26     3958   24,09%
      0     0     4877,6307    20     6415,0000      Cuts: 24     4030   23,97%
      0     0     4886,6456    23     6415,0000      Cuts: 25     4072   23,82%
      0     0     4891,9590    15     6415,0000      Cuts: 27     4161   23,74%
      0     0     4896,8140    16     6415,0000      Cuts: 27     4209   23,67%
      0     0     4900,8206    21     6415,0000      Cuts: 25     4239   23,60%
      0     0     4906,9298    20     6415,0000      Cuts: 26     4275   23,51%
      0     0     4910,2551    20     6415,0000      Cuts: 27     4307   23,46%
*     0+    0                         6402,0000     4910,2551            23,30%
      0     2     4910,2551    20     6402,0000     4910,2551     4307   23,30%
Elapsed time = 40,92 sec. (28377,26 ticks, tree = 0,01 MB, solutions = 21)
      1     2     6150,4590    15     6402,0000     4910,3822     5421   23,30%
     31     3     6184,3458    15     6402,0000     4910,3822     5521   23,30%
     58     4        cutoff           6402,0000     4910,7636     5616   23,29%
     75     4     6219,6770    14     6402,0000     4910,7636     5837   23,29%
    108     5     6233,5075    15     6402,0000     4910,7636     5954   23,29%
    143    12        cutoff           6402,0000     4910,7636     6163   23,29%
    188    29     6261,6738    13     6402,0000     4925,6294     7477   23,06%
    227    30     6274,9643    10     6402,0000     4925,6294     7541   23,06%
    273    41     5802,0199    18     6402,0000     4925,9207     8721   23,06%
    561   155     6301,2854    16     6402,0000     4925,9207    10224   23,06%
Elapsed time = 45,96 sec. (32697,24 ticks, tree = 1,57 MB, solutions = 21)
    884   337     5963,9000    12     6402,0000     4925,9207    11454   23,06%
   1222   489     6278,3001    17     6402,0000     4925,9207    13089   23,06%
   1582   644     6079,6310    13     6402,0000     4925,9207    14394   23,06%
   1907   838     5075,0264    24     6402,0000     4925,9207    16227   23,06%
   2169  1012     5156,4531    22     6402,0000     4925,9207    17656   23,06%
   2481  1225     5353,5840    21     6402,0000     5353,3705    32277   16,38%
   2496    24     6313,4329    15     6402,0000     5355,6392    32967   16,34%
   2526     2     6351,3449    18     6402,0000     5355,6392    33084   16,34%
   2554     2     6387,7692    14     6402,0000     5355,6392    33220   16,34%
   2580    20     5371,0332    26     6402,0000     5355,6392    35151   16,34%
Elapsed time = 97,03 sec. (67132,32 ticks, tree = 0,07 MB, solutions = 21)
   2630    32     6292,6020    18     6402,0000     5355,6392    35994   16,34%
   2708    48     6311,2811    18     6402,0000     5355,6392    36157   16,34%
   2782    87     6322,5202    15     6402,0000     5355,6392    36526   16,34%
   2868   133     5982,4022    14     6402,0000     5355,6392    36937   16,34%
   2933   167     6372,5902    17     6402,0000     5355,6392    37021   16,34%
   3025   232     5417,7167    19     6402,0000     5355,6392    37425   16,34%
   3119   268     6077,6250    12     6402,0000     5355,6392    37941   16,34%
   3265   355     5881,9469    18     6402,0000     5355,6392    38952   16,34%
   3463   565     6076,0863    16     6402,0000     5355,6392    39773   16,34%
   3656   721     5975,4970    13     6402,0000     5355,6392    40344   16,34%
Elapsed time = 128,79 sec. (76717,43 ticks, tree = 23,52 MB, solutions = 21)
   3805   805     6131,0667    11     6402,0000     5355,6392    40920   16,34%
   3932   953     5669,5946    14     6402,0000     5355,6392    41606   16,34%
   4022   994     6318,7264    18     6402,0000     5355,6392    42489   16,34%
   4188  1066     6161,4005    10     6402,0000     5355,6392    42866   16,34%
   4356  1232     5925,0425    15     6402,0000     5355,6392    44194   16,34%
   4538  1370     5946,6224    14     6402,0000     5355,6392    44612   16,34%
   4696  1452     5821,6667     8     6402,0000     5355,6392    44925   16,34%
   4853  1579     6383,8463    17     6402,0000     5355,6392    46103   16,34%
   4979  1664     6341,0970    18     6402,0000     5355,6392    47169   16,34%
   5085  1714     6288,4652    18     6402,0000     5355,6392    48054   16,34%
Elapsed time = 161,59 sec. (86306,06 ticks, tree = 36,25 MB, solutions = 21)
   5267  1842     6378,5603    16     6402,0000     5355,6392    48502   16,34%
   5375  1914     5805,7529    18     6402,0000     5355,6392    49409   16,34%
   5426  1943     5806,9652    18     6402,0000     5355,6392    49569   16,34%
   5600  1952     5848,7176    11     6402,0000     5355,6392    49612   16,34%
   5801  2213     6262,7111     9     6402,0000     5355,6392    50436   16,34%
   5992  2393     6153,2764     9     6402,0000     5355,6392    50967   16,34%
   6165  2535     6208,0511    11     6402,0000     5355,6392    51372   16,34%
   6325  2629     6311,3813    11     6402,0000     5355,6392    51667   16,34%
   6464  2711     5806,0995    18     6402,0000     5355,6392    52681   16,34%
   6629  2839     5866,0464    15     6402,0000     5355,6392    53039   16,34%
Elapsed time = 193,80 sec. (95912,05 ticks, tree = 48,90 MB, solutions = 21)
   6732  2903     5881,9295    16     6402,0000     5355,6392    53279   16,34%
   6836  2958     6321,4552    18     6402,0000     5355,6392    54160   16,34%
   6958  2997     5797,1239    18     6402,0000     5355,6392    56137   16,34%
   7052  3028     6351,2940    18     6402,0000     5355,6392    57411   16,34%
   7188  3131     6291,0444     7     6402,0000     5355,6392    57808   16,34%
   7396  3211     6320,9030    18     6402,0000     5355,6392    59285   16,34%
   7648  3424     6335,1170    17     6402,0000     5355,6392    61724   16,34%
   7924  3611     6362,5636    16     6402,0000     5355,6392    62898   16,34%
   8209  3852     6379,5739    16     6402,0000     5355,6392    66067   16,34%
   8441  4022     5916,4590    18     6402,0000     5355,6392    67926   16,34%
Elapsed time = 223,93 sec. (105491,43 ticks, tree = 110,93 MB, solutions = 21)
   8751  4134     5965,8548    19     6402,0000     5355,6392    68218   16,34%
   8828  4286     5965,9224    19     6402,0000     5355,6392    69813   16,34%
   9057  4507     6069,7091    17     6402,0000     5355,6392    70529   16,34%
   9287  4800     5871,7164    18     6402,0000     5355,6392    73357   16,34%
   9464  4910     5948,3789    16     6402,0000     5355,6392    73620   16,34%
   9660  5064     6355,7452    18     6402,0000     5355,6392    74649   16,34%
   9882  5111     6342,9851    18     6402,0000     5355,6392    75363   16,34%
  10130  5361     6350,8134    18     6402,0000     5355,6392    76702   16,34%
  10287  5624     5915,7009    18     6402,0000     5355,6392    78007   16,34%
  10640  5774     6234,3202    16     6402,0000     5355,6392    77748   16,34%
Elapsed time = 254,35 sec. (115202,38 ticks, tree = 416,53 MB, solutions = 21)
  10989  6169     6349,1675    10     6402,0000     5355,6392    79088   16,34%
  11253  6368     6172,7747    13     6402,0000     5355,6392    79819   16,34%
  11510  6746        cutoff           6402,0000     5355,6392    81865   16,34%
  11678  6901     6395,1205    18     6402,0000     5355,6392    83771   16,34%
  11818  7026     5952,5416    18     6402,0000     5355,6392    85356   16,34%
  12131  7078     6339,4302    14     6402,0000     5355,6392    86082   16,34%
  12430  7361     6121,4207    14     6402,0000     5355,6392    87051   16,34%
  12749  7662     6199,9154    13     6402,0000     5355,6392    88370   16,34%
  13047  7591     6331,4826     7     6402,0000     5355,6392    88336   16,34%
  13286  8098     6333,7320    19     6402,0000     5355,6392    91584   16,34%
Elapsed time = 283,61 sec. (124978,29 ticks, tree = 667,28 MB, solutions = 21)
  13579  8374     6192,8273    12     6402,0000     5355,6392    92940   16,34%
  13809  8621     6291,9915    11     6402,0000     5355,6392    94145   16,34%
  14068  8639     5831,6493    21     6402,0000     5355,6392    97269   16,34%
  14154  8697     6398,8007     7     6402,0000     5355,6392    97450   16,34%
  14328  8887     6321,9888    19     6402,0000     5405,8470   100510   15,56%
  14747  9256     5816,0177    19     6402,0000     5408,2333   103207   15,52%
  15171  9344     6163,5463    12     6402,0000     5408,2333   102986   15,52%
  15600  9811     6246,9986    10     6402,0000     5408,2333   106314   15,52%
  16071 10129     6094,3777    13     6402,0000     5408,2333   107352   15,52%
  16471 10695     6090,8153    15     6402,0000     5408,2333   108794   15,52%
Elapsed time = 310,68 sec. (134543,16 ticks, tree = 870,17 MB, solutions = 21)
  16881 11073     6159,9706    16     6402,0000     5408,2333   110308   15,52%
  17283 11474     6380,7599    17     6402,0000     5414,0456   112373   15,43%
  17449 11531     6316,5336    19     6402,0000     5414,0456   113189   15,43%
  17650 12194     5898,3783    15     6402,0000     5414,0456   116372   15,43%
  17889 12292     5986,1065    12     6402,0000     5414,9947   116618   15,42%
  18153 12506     6039,1934    13     6402,0000     5414,9947   118272   15,42%
  18586 12642     6174,5814    13     6402,0000     5414,9947   118519   15,42%
  19002 13164     6084,3945    13     6402,0000     5414,9947   123011   15,42%
  19304 12891     5962,4472    12     6402,0000     5414,9947   122761   15,42%
  20649 14564     6112,7029    13     6402,0000     5414,9947   128712   15,42%
Elapsed time = 346,42 sec. (146989,50 ticks, tree = 923,90 MB, solutions = 21)
  21689 15805     6165,3383    14     6402,0000     5414,9947   133159   15,42%
  23096 16834     6200,7178    14     6402,0000     5414,9947   136469   15,42%
  24648 18088     6340,1573    11     6402,0000     5432,5522   142202   15,14%
  25967 19062     6212,9250    10     6402,0000     5442,7783   145994   14,98%
  26847 20292     6099,4107    16     6402,0000     5449,9947   150511   14,87%
  27557 21087     5870,1430    19     6402,0000     5449,9947   153514   14,87%
  28513 21993     6194,4306    12     6402,0000     5449,9947   156178   14,87%
  29261 22593     6244,6703    13     6402,0000     5449,9947   159023   14,87%
  30596 23599     6187,9563    10     6402,0000     5449,9947   162623   14,87%
  31501 24896     5409,0750    23     6402,0000     5465,2934   174335   14,63%
Elapsed time = 460,80 sec. (217902,51 ticks, tree = 1262,81 MB, solutions = 21)
  31636    19     6333,6319    17     6402,0000     5465,2934   178649   14,63%
  31850    49     6337,2090    16     6402,0000     5465,2934   181045   14,63%
  32195   107     5919,8254    18     6402,0000     5465,2934   183647   14,63%
  32598   280     5929,6664    17     6402,0000     5465,2934   187062   14,63%
  32992   456     5972,3186    15     6402,0000     5465,2934   190089   14,63%
  33311   610     5986,4971    16     6402,0000     5465,2934   191828   14,63%
  33563   676     6136,3785    13     6402,0000     5465,2934   192528   14,63%
  33819   711     6106,2725    12     6402,0000     5465,2934   193384   14,63%
  34115   787        cutoff           6402,0000     5465,2934   195137   14,63%
  34517   939     6166,1646    10     6402,0000     5465,2934   197390   14,63%
Elapsed time = 580,59 sec. (256186,74 ticks, tree = 8,62 MB, solutions = 21)
  34813  1000     5820,6250    10     6402,0000     5465,2934   198066   14,63%
  35176  1124     5991,4517    17     6402,0000     5465,2934   199276   14,63%
  35516  1296     5960,1157    10     6402,0000     5465,2934   200067   14,63%
  35899  1433     6050,8566    12     6402,0000     5465,2934   200686   14,63%
  36326  1687     6283,6407    12     6402,0000     5465,2934   202233   14,63%
  36697  1872     6204,8457     9     6402,0000     5465,2934   202951   14,63%
  37029  2119     6066,9722    12     6402,0000     5465,2934   204170   14,63%
  37482  2325     6372,3583    17     6402,0000     5465,2934   206852   14,63%
  38036  2780     6206,8690    12     6402,0000     5465,2934   209711   14,63%
  38525  3161     6351,2942    12     6402,0000     5465,2934   211430   14,63%
Elapsed time = 701,20 sec. (294438,99 ticks, tree = 30,96 MB, solutions = 21)
  39093  3650     6349,7745    12     6402,0000     5465,2934   213575   14,63%
  39597  3892     6322,8730    11     6402,0000     5465,2934   214681   14,63%
  40241  4252     6096,7635    15     6402,0000     5465,2934   217633   14,63%
  40943  4888     6213,7830    14     6402,0000     5465,2934   220525   14,63%
  41571  5452     6283,6107    12     6402,0000     5465,2934   221947   14,63%
  42330  6014        cutoff           6402,0000     5465,2934   225602   14,63%
  43229  6464     6018,2224    15     6402,0000     5465,2934   227923   14,63%
  44274  7270     6096,2674    15     6402,0000     5472,0750   232321   14,53%
  45227  8004     6195,0615    14     6402,0000     5473,0750   236771   14,51%
  46272  8994     6376,5152     8     6402,0000     5473,0750   241722   14,51%
Elapsed time = 803,12 sec. (332635,83 ticks, tree = 91,44 MB, solutions = 21)
  47451  9355     6183,0435    14     6402,0000     5491,0471   243122   14,23%
  48588 10672     6312,3163    13     6402,0000     5500,4988   250247   14,08%
  49645 11430     6259,5626    11     6402,0000     5500,4988   253647   14,08%
  50629 11867     6172,1642    12     6402,0000     5500,4988   256177   14,08%
  51328 12278     6270,4373    10     6402,0000     5500,4988   257955   14,08%
  52077 12879     6397,1159    12     6402,0000     5581,6946   261442   12,81%
  52839 13212     6381,6344    10     6402,0000     5597,0436   263036   12,57%
  54151 14249     6215,6413    12     6402,0000     5606,2732   269167   12,43%
  55247 14869     6259,5992     9     6402,0000     5621,6268   273596   12,19%
  56316 15602     6167,0795    13     6402,0000     5636,9142   278651   11,95%
Elapsed time = 897,41 sec. (370812,11 ticks, tree = 164,84 MB, solutions = 21)
  57596 16273     6124,5095    15     6402,0000     5649,2739   281540   11,76%
  58930 17559     6288,8087    12     6402,0000     5672,1509   286876   11,40%
  60181 18379     6155,6167    11     6402,0000     5693,6250   290336   11,06%
  61426 19331     6314,2988    11     6402,0000     5710,4750   297028   10,80%
  62712 20253     5947,8814    16     6402,0000     5740,3742   303103   10,33%
  63920 21285     6134,5625    13     6402,0000     5752,1750   310308   10,15%
  64856 21753     6198,9218    14     6402,0000     5765,7804   313425    9,94%
  65389 22316     6031,9166    15     6402,0000     5780,9529   317845    9,70%
  66450 22701     6135,5150    12     6402,0000     5814,7495   319615    9,17%
  67097 23565        cutoff           6402,0000     5814,7495   323639    9,17%
Elapsed time = 990,07 sec. (408992,74 ticks, tree = 249,24 MB, solutions = 21)
  67838 24039     6126,1867    13     6402,0000     5814,7495   326889    9,17%
  68778 24445     6252,5777    13     6402,0000     5814,7495   329515    9,17%
  69504 24907     6158,0192    15     6402,0000     5844,4875   332004    8,71%
  70289 25487     6266,9633    10     6402,0000     5844,4875   335204    8,71%
  71026 25890     6332,7723     9     6402,0000     5844,4875   336800    8,71%
  71822 26573     6074,7361     9     6402,0000     5872,3105   341431    8,27%
  72718 27175     6332,7662    10     6402,0000     5872,3105   345248    8,27%
  73269 27949     6383,2607    12     6402,0000     5872,3105   348266    8,27%
  73805 28212     6317,3729     9     6402,0000     5872,3105   349642    8,27%
  74222 28588        cutoff           6402,0000     5872,3105   351456    8,27%
Elapsed time = 1091,51 sec. (447190,46 ticks, tree = 304,91 MB, solutions = 21)
  74822 28895     6233,2288    12     6402,0000     5884,0403   353184    8,09%
  75485 29317     6370,0993    13     6402,0000     5884,0403   355314    8,09%
  76308 29740     6359,5691    13     6402,0000     5897,1824   358353    7,89%
  77273 30238        cutoff           6402,0000     5908,8062   362812    7,70%
  78216 30641        cutoff           6402,0000     5910,7917   367589    7,67%
  78941 30958     6150,8854    13     6402,0000     5910,7917   371320    7,67%
  79655 31408     6371,6704    14     6402,0000     5910,7917   374745    7,67%
  80395 31919     6166,0806    12     6402,0000     5914,1824   379231    7,62%
  81124 32280     6264,0855    13     6402,0000     5927,6993   381185    7,41%
  81975 33186        cutoff           6402,0000     5928,3998   385885    7,40%
Elapsed time = 1189,66 sec. (485379,16 ticks, tree = 358,28 MB, solutions = 21)
  82907 33460     6199,3042    15     6402,0000     5936,3277   390169    7,27%
  84169 33645     6295,8864    10     6402,0000     5942,4917   393731    7,18%
  85349 34801     6308,9697    12     6402,0000     5949,7041   400235    7,06%
  86465 35587     6380,5931    12     6402,0000     5959,4519   404932    6,91%
  87595 36540     6295,5530     9     6402,0000     5977,1167   412284    6,64%
  88781 37284        cutoff           6402,0000     5981,0952   421051    6,57%
  89894 37941     6362,9148    10     6402,0000     5983,8441   427936    6,53%
  90725 38482     6275,0438    13     6402,0000     5986,3268   431180    6,49%
  91694 39426     6285,0783     9     6402,0000     5987,0484   436182    6,48%
  92710 39717     6367,5639    10     6402,0000     5988,2361   438749    6,46%
Elapsed time = 1275,07 sec. (523548,64 ticks, tree = 443,95 MB, solutions = 21)
  93589 40356        cutoff           6402,0000     5988,6453   443849    6,46%
  94544 40896     6239,1483    14     6402,0000     5989,4320   450841    6,44%
  95576 41321     6121,2194    15     6402,0000     5989,4320   458342    6,44%
  96726 41999     6296,8391    13     6402,0000     5993,6645   463503    6,38%
  97835 42753        cutoff           6402,0000     5997,8890   471149    6,31%
  98839 43393     6371,6039    12     6402,0000     6005,0876   481139    6,20%
  99929 43817     6306,9916    12     6402,0000     6008,8888   490658    6,14%
 101048 44625     6127,6488    14     6402,0000     6016,4281   499822    6,02%
 102143 45194     6319,4138    14     6402,0000     6023,2493   504180    5,92%
 103323 46163     6365,0516    13     6402,0000     6030,9160   511182    5,80%
Elapsed time = 1360,14 sec. (561717,92 ticks, tree = 520,89 MB, solutions = 21)
 104434 46461        cutoff           6402,0000     6035,8923   517395    5,72%
 105562 47110     6315,0375    11     6402,0000     6042,0189   525811    5,62%
 106638 47771        cutoff           6402,0000     6047,2018   533369    5,54%
 107738 48630     6256,9773     9     6402,0000     6052,6331   543285    5,46%
 108861 49251     6313,5334    11     6402,0000     6057,0625   548768    5,39%
 109901 49933     6340,1905    18     6402,0000     6060,1000   553933    5,34%
 110889 50621        cutoff           6402,0000     6067,1639   561045    5,23%
 112018 51483     6197,7595    13     6402,0000     6070,3627   567263    5,18%
 112936 52206     6351,4668    14     6402,0000     6070,3627   572518    5,18%
 114017 52725     6323,9581    13     6402,0000     6071,7367   578525    5,16%
Elapsed time = 1444,13 sec. (599906,46 ticks, tree = 603,73 MB, solutions = 21)
 115145 53402     6351,0189    14     6402,0000     6073,0654   587218    5,14%
 116073 53844     6399,1848    11     6402,0000     6075,3125   593669    5,10%
 117020 54512     6338,9186    11     6402,0000     6075,3166   601536    5,10%
 118105 55037     6397,1616    13     6402,0000     6076,5077   608370    5,08%
 119125 55550     6311,8788    10     6402,0000     6078,0374   618562    5,06%
 120174 56149        cutoff           6402,0000     6080,5492   628749    5,02%
 121297 56783     6342,8800     9     6402,0000     6081,9804   635796    5,00%
 122350 57267        cutoff           6402,0000     6083,2347   645335    4,98%
 123391 57792     6358,7438    14     6402,0000     6085,2500   652926    4,95%
 124474 58311     6263,0580    12     6402,0000     6086,7933   659498    4,92%
Elapsed time = 1524,94 sec. (638078,65 ticks, tree = 677,21 MB, solutions = 21)
 125546 59186     6251,7707    12     6402,0000     6088,8152   668542    4,89%
 126631 60004     6344,2696    12     6402,0000     6090,6206   674356    4,86%
 127627 60381     6392,3430    12     6402,0000     6091,3166   679135    4,85%
 128698 61110     6383,5455    10     6402,0000     6093,7829   691831    4,81%
 129765 61457     6375,9518    11     6402,0000     6095,2999   696512    4,79%
 130852 62417     6364,4872    15     6402,0000     6096,3615   707743    4,77%
 131838 62933     6378,2686    14     6402,0000     6096,9922   716468    4,76%
 132770 63144     6327,7085    18     6402,0000     6098,3002   721333    4,74%
 133880 63562        cutoff           6402,0000     6099,6161   730816    4,72%
 134788 64139        cutoff           6402,0000     6100,2783   736112    4,71%
Elapsed time = 1606,54 sec. (676254,73 ticks, tree = 755,99 MB, solutions = 21)
 135312 64751     6343,0000     9     6402,0000     6100,2783   744430    4,71%
 136149 64997     6349,1845    14     6402,0000     6103,3687   749534    4,66%
 136848 65474     6328,4392    12     6402,0000     6103,7503   759168    4,66%
 137808 65673     6329,8810    16     6402,0000     6106,1299   763450    4,62%
 138700 66054        cutoff           6402,0000     6109,1221   774642    4,57%
 139486 66596     6228,2121    13     6402,0000     6109,1221   783531    4,57%
 140183 66981     6366,9515    11     6402,0000     6109,1221   787154    4,57%
 141091 67417     6377,3332    12     6402,0000     6109,9981   792421    4,56%
 142053 67912     6370,0713    16     6402,0000     6111,5671   800570    4,54%
 143129 68578     6354,7164     9     6402,0000     6113,6067   806927    4,50%
Elapsed time = 1695,20 sec. (714444,94 ticks, tree = 814,19 MB, solutions = 21)
 144176 69357     6392,4485    12     6402,0000     6119,2313   819058    4,42%
 145206 69790     6345,7273     9     6402,0000     6120,7816   828701    4,39%
 146166 70638     6371,4417    10     6402,0000     6121,0370   836400    4,39%
 147267 71283     6347,9091     9     6402,0000     6122,2678   844062    4,37%
 148382 71878        cutoff           6402,0000     6123,6310   850115    4,35%
 149455 72523     6340,6688     9     6402,0000     6124,1564   861683    4,34%
 150539 73118     6293,5716     8     6402,0000     6124,4837   868225    4,33%
 151699 73728        cutoff           6402,0000     6125,0594   877002    4,33%
 152687 74260     6354,0450     9     6402,0000     6125,7937   886863    4,31%
 153718 74528     6355,0989     9     6402,0000     6126,5321   893955    4,30%
Elapsed time = 1776,45 sec. (752632,29 ticks, tree = 891,93 MB, solutions = 21)
 154690 75091     6347,0447    11     6402,0000     6128,4653   912926    4,27%
 155666 75480     6332,1257    18     6402,0000     6130,2500   924104    4,24%
 156779 75977     6351,9626     9     6402,0000     6131,1619   930369    4,23%
 157836 76733     6369,0275    10     6402,0000     6132,6116   936214    4,21%
 158961 77230     6356,8909    10     6402,0000     6134,1383   945067    4,18%
 160006 78069     6328,0289    12     6402,0000     6136,1494   959257    4,15%
 161061 78436     6384,6269     8     6402,0000     6137,1458   964373    4,14%
 162139 78912     6375,1858     9     6402,0000     6137,4103   974175    4,13%
 163118 79329     6330,8377    14     6402,0000     6139,1042   980143    4,11%
 164194 79898     6312,5682     8     6402,0000     6140,4125   986353    4,09%
Elapsed time = 1858,23 sec. (790812,95 ticks, tree = 959,39 MB, solutions = 21)
 165276 80230     6292,5189     8     6402,0000     6143,9795   996696    4,03%
 166411 80626     6348,4868    10     6402,0000     6145,8309  1002688    4,00%
 167462 81203     6353,6437    12     6402,0000     6146,9993  1011633    3,98%
 168521 81912     6353,3729     8     6402,0000     6149,3618  1017825    3,95%
 169539 82503     6325,3939     8     6402,0000     6151,9888  1030428    3,91%
 170680 83112     6335,5651     9     6402,0000     6153,5292  1036721    3,88%
 171802 83844     6378,2138    11     6402,0000     6154,5054  1044842    3,87%
 172840 84587     6357,7337    10     6402,0000     6155,7171  1054485    3,85%
 173937 85158     6382,3816    12     6402,0000     6157,0183  1067610    3,83%
 174945 85777     6359,9908     8     6402,0000     6158,4619  1078556    3,80%
Elapsed time = 1937,97 sec. (828977,67 ticks, tree = 1039,15 MB, solutions = 21)
 176011 86192     6317,8909    10     6402,0000     6159,4625  1081521    3,79%
 177107 86881        cutoff           6402,0000     6160,5712  1088798    3,77%
 178164 87467     6305,3293    13     6402,0000     6162,2172  1098532    3,75%
 179323 88207     6390,2094    12     6402,0000     6163,2003  1107976    3,73%
 180371 88632        cutoff           6402,0000     6164,2934  1113700    3,71%
 181352 88910        cutoff           6402,0000     6165,3279  1122975    3,70%
 182336 89239     6275,1031    11     6402,0000     6166,2118  1133407    3,68%
 183408 89500     6341,0816    17     6402,0000     6167,1221  1139113    3,67%
 184568 90268        cutoff           6402,0000     6169,0387  1150398    3,64%
 185503 90675     6324,2072     8     6402,0000     6170,5478  1157695    3,62%
Elapsed time = 2023,79 sec. (867154,21 ticks, tree = 1105,09 MB, solutions = 21)
 186635 91093     6393,2020     9     6402,0000     6171,8067  1166046    3,60%
 187706 91551     6392,5654     9     6402,0000     6172,9359  1177844    3,58%
 188823 92049        cutoff           6402,0000     6173,7653  1182504    3,57%
 189874 92252     6387,0570    12     6402,0000     6174,9139  1188476    3,55%
 190961 92495        cutoff           6402,0000     6177,5711  1199167    3,51%
 192027 92720     6356,8123    12     6402,0000     6179,4669  1206584    3,48%
 193120 93491     6366,3287     8     6402,0000     6180,9438  1213194    3,45%
 194144 94009     6296,8140    13     6402,0000     6183,4160  1220006    3,41%
 195356 94623     6374,9444     9     6402,0000     6185,1061  1223739    3,39%
 196442 94802     6253,1852     7     6402,0000     6186,9270  1231686    3,36%
Elapsed time = 2108,95 sec. (905328,39 ticks, tree = 1162,60 MB, solutions = 21)
 197616 95433     6356,0865     9     6402,0000     6189,7885  1239119    3,31%
 198755 95626     6359,4167     6     6402,0000     6191,2419  1244295    3,29%
 199890 96197     6357,2514    10     6402,0000     6192,5532  1248880    3,27%
 201019 96779     6344,4257     6     6402,0000     6193,5658  1259006    3,26%
 202140 97025     6347,6832     7     6402,0000     6196,1146  1266382    3,22%
 203327 97372        cutoff           6402,0000     6199,2473  1269324    3,17%
 204488 97889     6298,6942    11     6402,0000     6200,6817  1274490    3,14%
 205651 98514     6331,1799     9     6402,0000     6202,9303  1282860    3,11%
 206862 99416     6337,1346     9     6402,0000     6204,4703  1289746    3,09%
 207979 99760     6376,0601    11     6402,0000     6206,3684  1292437    3,06%
Elapsed time = 2194,84 sec. (943505,05 ticks, tree = 1230,18 MB, solutions = 21)
 208639 100103        cutoff           6402,0000     6207,3235  1298629    3,04%
 209604 100486        cutoff           6402,0000     6207,8057  1301078    3,03%
 210652 101154     6395,7755     5     6402,0000     6208,9120  1307419    3,02%
 211471 101525     6332,9123    12     6402,0000     6209,4983  1310935    3,01%
 212617 102026     6328,6559     7     6402,0000     6210,3408  1314970    2,99%
 213815 102630        cutoff           6402,0000     6211,3413  1318649    2,98%
 214856 103238     6289,5593    17     6402,0000     6213,2222  1326450    2,95%
 215943 103411     6382,7133    16     6402,0000     6214,9287  1331822    2,92%
 216974 103780        cutoff           6402,0000     6216,6524  1336801    2,90%
 217930 104248     6351,7645     7     6402,0000     6218,2176  1345053    2,87%
Elapsed time = 2285,64 sec. (981683,37 ticks, tree = 1291,91 MB, solutions = 21)
 218936 104617     6364,8251     7     6402,0000     6219,3623  1351415    2,85%
 220059 104999     6323,5927     9     6402,0000     6220,2351  1353101    2,84%
 221302 105448     6377,2735     7     6402,0000     6221,3328  1360865    2,82%
 222575 106040    infeasible           6402,0000     6223,2644  1365191    2,79%
 223848 106361        cutoff           6402,0000     6224,7514  1369593    2,77%
 225112 106960     6289,5207    11     6402,0000     6226,8839  1377445    2,74%
 226390 107670     6367,5778     6     6402,0000     6228,0962  1382442    2,72%
 227666 107876        cutoff           6402,0000     6229,1364  1385591    2,70%
 228860 108640     6311,2336    16     6402,0000     6230,3750  1392907    2,68%
 230068 109162     6386,5000     3     6402,0000     6230,5464  1398857    2,68%
Elapsed time = 2371,67 sec. (1019842,56 ticks, tree = 1360,26 MB, solutions = 21)
 231316 109426     6319,9161     8     6402,0000     6231,8583  1404456    2,66%
 232618 109604     6386,1250     8     6402,0000     6232,5837  1408295    2,65%
 233884 110172        cutoff           6402,0000     6233,5492  1412564    2,63%
 235173 110887     6361,0744     8     6402,0000     6235,8850  1417924    2,59%
 236521 111331     6364,8333     5     6402,0000     6237,1846  1421377    2,57%
 237760 112163        cutoff           6402,0000     6238,4920  1429255    2,55%
 238987 112619     6393,0658     8     6402,0000     6239,5568  1433777    2,54%
 240261 113122     6368,6203     8     6402,0000     6240,5522  1438163    2,52%
 241536 113868    infeasible           6402,0000     6241,0975  1444253    2,51%
 242822 114397     6373,9000     5     6402,0000     6242,0573  1448356    2,50%
Elapsed time = 2457,84 sec. (1058008,59 ticks, tree = 1435,53 MB, solutions = 21)
 243991 114927     6371,0774     7     6402,0000     6243,1441  1452856    2,48%
 245289 115522     6283,4305    10     6402,0000     6243,9896  1459056    2,47%
 246584 116054     6369,5847     8     6402,0000     6244,8933  1462516    2,45%
 247785 116683     6332,8605    14     6402,0000     6245,3767  1467519    2,45%
 249052 117280     6393,1056     7     6402,0000     6246,7070  1472825    2,43%
 250342 117848        cutoff           6402,0000     6247,7500  1477227    2,41%
 251571 118835     6378,9533     5     6402,0000     6248,4976  1484861    2,40%
 252279 119131     6375,2048     4     6402,0000     6248,8556  1487594    2,39%
 253293 119435     6331,5646     8     6402,0000     6249,3207  1490787    2,38%
 254576 119743        cutoff           6402,0000     6249,8035  1496073    2,38%
Elapsed time = 2545,54 sec. (1096177,08 ticks, tree = 1509,97 MB, solutions = 21)
 255812 120295     6390,6774     9     6402,0000     6250,3911  1501536    2,37%
 257073 120740     6390,4651     6     6402,0000     6250,9333  1504762    2,36%
 258328 121364     6386,6711    12     6402,0000     6251,3000  1509810    2,35%
 259576 121722     6390,8153    10     6402,0000     6252,3713  1511936    2,34%
 260847 122413     6388,7282     8     6402,0000     6253,3107  1518092    2,32%
 262044 122868     6337,7778     9     6402,0000     6253,8668  1523325    2,31%
 263279 123308     6379,7917     6     6402,0000     6254,3785  1529047    2,31%
 264493 123337     6361,9730    12     6402,0000     6254,6825  1534734    2,30%
 265581 123858     6354,3223     9     6402,0000     6255,4358  1540576    2,29%
 266509 123852     6323,0811    15     6402,0000     6256,5886  1545991    2,27%
Elapsed time = 2632,42 sec. (1134337,15 ticks, tree = 1569,02 MB, solutions = 21)
 267648 124202     6316,6226     9     6402,0000     6257,1517  1553182    2,26%
 268907 124393     6362,0611     5     6402,0000     6257,8312  1554495    2,25%
 270115 124945     6391,8976    12     6402,0000     6258,4153  1559221    2,24%
 271169 125403     6381,8618     6     6402,0000     6259,5896  1565424    2,22%
 272372 125373     6382,9235     7     6402,0000     6261,2538  1570874    2,20%
 273607 125771     6383,6250     7     6402,0000     6262,2113  1578071    2,18%
 274893 126029     6400,9856     7     6402,0000     6262,9387  1583207    2,17%
 276119 126200     6301,4133     9     6402,0000     6263,7953  1587486    2,16%
 277316 126132     6394,0333     7     6402,0000     6264,8526  1597429    2,14%
 278558 126589     6373,2220     8     6402,0000     6265,8940  1603578    2,13%
Elapsed time = 2718,26 sec. (1172509,05 ticks, tree = 1609,63 MB, solutions = 21)
 279825 126815        cutoff           6402,0000     6266,6186  1609580    2,11%
 281076 126802     6389,7603     7     6402,0000     6267,4932  1612754    2,10%
 282248 126702     6373,4379     9     6402,0000     6268,4575  1619572    2,09%
 283442 126351     6382,8513     8     6402,0000     6269,4911  1631456    2,07%
 284578 126470        cutoff           6402,0000     6270,9526  1640405    2,05%
 285777 126448        cutoff           6402,0000     6272,5019  1646112    2,02%
 286920 126423     6374,7373     9     6402,0000     6274,0505  1653083    2,00%
 288089 126403     6388,5658     9     6402,0000     6275,3085  1661460    1,98%
 289303 126692        cutoff           6402,0000     6276,8333  1667198    1,96%
 290110 127014     6375,8201     7     6402,0000     6277,9904  1673594    1,94%
Elapsed time = 2805,99 sec. (1210687,20 ticks, tree = 1620,59 MB, solutions = 21)
 291095 126991     6398,1374     9     6402,0000     6279,7297  1678125    1,91%
 292124 126265        cutoff           6402,0000     6280,8333  1687816    1,89%
 293025 126163     6381,8884     7     6402,0000     6281,9804  1689860    1,87%
 294181 125908     6378,5667    10     6402,0000     6282,5499  1699123    1,87%
 295259 125938        cutoff           6402,0000     6283,2000  1702670    1,86%
 296450 125544    infeasible           6402,0000     6284,5950  1709734    1,83%
 297614 125640        cutoff           6402,0000     6285,8359  1713887    1,81%
 298830 125204     6366,6160    15     6402,0000     6286,8933  1722040    1,80%
 299938 125178        cutoff           6402,0000     6288,0220  1729240    1,78%
 301228 124638     6399,1722     7     6402,0000     6288,8864  1738440    1,77%
Elapsed time = 2899,31 sec. (1248883,84 ticks, tree = 1597,08 MB, solutions = 21)
 302447 124272        cutoff           6402,0000     6289,5600  1744853    1,76%
 303751 123974     6333,3500    10     6402,0000     6290,8427  1753367    1,74%
 304973 124001     6388,2379     8     6402,0000     6293,1011  1760970    1,70%
 306295 123239        cutoff           6402,0000     6295,0577  1771609    1,67%
 307643 123123     6387,8008     9     6402,0000     6296,6713  1775572    1,65%
 308945 121956        cutoff           6402,0000     6297,8797  1788120    1,63%
 310263 121901     6349,7394     9     6402,0000     6298,7503  1791124    1,61%
 311568 121488        cutoff           6402,0000     6299,8971  1803649    1,59%
 312760 121294     6397,0741     6     6402,0000     6301,0015  1808334    1,58%
 314032 121159     6369,4757    10     6402,0000     6302,3391  1815039    1,56%
Elapsed time = 2989,14 sec. (1287054,81 ticks, tree = 1552,80 MB, solutions = 21)
 315361 120806     6385,6276     8     6402,0000     6303,8930  1827589    1,53%
 316721 120261     6384,3743    10     6402,0000     6305,1589  1833657    1,51%
 317952 119989        cutoff           6402,0000     6306,3872  1841816    1,49%
 319056 119037        cutoff           6402,0000     6307,5611  1854081    1,48%
 320354 118049        cutoff           6402,0000     6308,6548  1864471    1,46%
 321577 117416        cutoff           6402,0000     6309,3344  1872774    1,45%
 322954 116931        cutoff           6402,0000     6311,6274  1881339    1,41%
 324371 115882     6394,0605     9     6402,0000     6312,8066  1890245    1,39%
 325638 114842        cutoff           6402,0000     6314,0000  1903301    1,37%
 326886 114186        cutoff           6402,0000     6315,3831  1911014    1,35%
Elapsed time = 3083,65 sec. (1325238,86 ticks, tree = 1468,09 MB, solutions = 21)
 328076 113172        cutoff           6402,0000     6316,3975  1922209    1,34%
 329371 112328        cutoff           6402,0000     6317,7122  1930799    1,32%
 330736 110780        cutoff           6402,0000     6319,2774  1946258    1,29%
 332107 109877        cutoff           6402,0000     6320,2059  1954240    1,28%
 333468 109202    infeasible           6402,0000     6321,3370  1962315    1,26%
 334893 107853        cutoff           6402,0000     6322,6522  1976396    1,24%
 336280 107424        cutoff           6402,0000     6323,9600  1981149    1,22%
 337570 105922     6378,5299    10     6402,0000     6324,8090  1993922    1,21%
 339026 105323        cutoff           6402,0000     6326,2424  2000000    1,18%
 340361 104213        cutoff           6402,0000     6327,5847  2011610    1,16%
Elapsed time = 3176,44 sec. (1363406,84 ticks, tree = 1342,06 MB, solutions = 21)
 341626 102803     6369,1544    10     6402,0000     6329,2180  2025048    1,14%
 342817 102677        cutoff           6402,0000     6329,9535  2026379    1,13%
 344279 101086        cutoff           6402,0000     6331,4607  2040079    1,10%
 345748 99715        cutoff           6402,0000     6332,6441  2048965    1,08%
 347008 98384        cutoff           6402,0000     6333,4684  2058470    1,07%
 348239 97416        cutoff           6402,0000     6334,3148  2068037    1,06%
 349612 96538        cutoff           6402,0000     6335,3012  2075694    1,04%
 350973 95532        cutoff           6402,0000     6336,6015  2084416    1,02%
 352420 94208        cutoff           6402,0000     6337,6923  2095895    1,00%
 353687 93540        cutoff           6402,0000     6338,4405  2101639    0,99%
Elapsed time = 3271,90 sec. (1401584,69 ticks, tree = 1206,38 MB, solutions = 21)
 355129 92075        cutoff           6402,0000     6339,2697  2115469    0,98%
 356530 91303    infeasible           6402,0000     6340,3310  2121849    0,96%
 357904 90068        cutoff           6402,0000     6341,2348  2132413    0,95%
 359300 88626    infeasible           6402,0000     6342,2530  2144534    0,93%
 360712 87394        cutoff           6402,0000     6343,1431  2156118    0,92%
 362132 86244        cutoff           6402,0000     6344,4008  2165623    0,90%
 363521 84837        cutoff           6402,0000     6345,1256  2175847    0,89%
 364839 84437        cutoff           6402,0000     6345,8056  2178573    0,88%
 366238 83054    infeasible           6402,0000     6346,7260  2191153    0,86%
 367699 81654        cutoff           6402,0000     6347,6874  2203159    0,85%
Elapsed time = 3367,46 sec. (1439756,32 ticks, tree = 1053,86 MB, solutions = 21)
 369179 79766        cutoff           6402,0000     6348,4926  2216108    0,84%
 370521 78596        cutoff           6402,0000     6349,0949  2225304    0,83%
 371856 77748        cutoff           6402,0000     6350,2053  2232022    0,81%
 373166 76157     6394,3125     6     6402,0000     6350,9532  2244024    0,80%
 374560 75606    infeasible           6402,0000     6351,8595  2249233    0,78%
 375912 73945        cutoff           6402,0000     6352,5915  2259421    0,77%
 377356 72925        cutoff           6402,0000     6353,3182  2267376    0,76%
 378408 71802        cutoff           6402,0000     6354,2186  2276246    0,75%
 379825 70720        cutoff           6402,0000     6354,9809  2283407    0,73%
 381236 69268        cutoff           6402,0000     6355,9301  2292420    0,72%
Elapsed time = 3462,40 sec. (1477940,21 ticks, tree = 895,27 MB, solutions = 21)
 382593 67792        cutoff           6402,0000     6356,5958  2301370    0,71%
 383757 67327        cutoff           6402,0000     6357,1579  2304055    0,70%
 385250 65629        cutoff           6402,0000     6358,1863  2312879    0,68%
 386581 63873    infeasible           6402,0000     6359,0000  2322021    0,67%
 387934 62274        cutoff           6402,0000     6359,9915  2330475    0,66%
 389249 61321    infeasible           6402,0000     6360,3246  2336024    0,65%
 390207 60502        cutoff           6402,0000     6361,1610  2341173    0,64%
 391374 59291        cutoff           6402,0000     6362,1129  2348192    0,62%
 392678 58143        cutoff           6402,0000     6362,6392  2355364    0,61%
 393945 57214        cutoff           6402,0000     6363,4173  2360076    0,60%
Elapsed time = 3557,44 sec. (1516121,61 ticks, tree = 744,82 MB, solutions = 21)
 395360 56283        cutoff           6402,0000     6364,0923  2366400    0,59%
 396684 55545        cutoff           6402,0000     6364,9717  2371299    0,58%
 398173 54025        cutoff           6402,0000     6365,7500  2380208    0,57%
 398884 52464        cutoff           6402,0000     6366,2242  2388622    0,56%
 400373 51969        cutoff           6402,0000     6366,9250  2391294    0,55%
 401862 49618        cutoff           6402,0000     6368,1084  2405444    0,53%
 403326 49144    infeasible           6402,0000     6368,7000  2407775    0,52%
 404718 47827        cutoff           6402,0000     6369,6164  2415112    0,51%
 406132 45660        cutoff           6402,0000     6370,2431  2427277    0,50%
 407586 44380        cutoff           6402,0000     6370,9421  2432852    0,49%
Elapsed time = 3652,26 sec. (1554301,06 ticks, tree = 577,26 MB, solutions = 21)
 408931 43045        cutoff           6402,0000     6371,9143  2438621    0,47%
 410346 41283        cutoff           6402,0000     6372,4583  2446663    0,46%
 411477 40359        cutoff           6402,0000     6373,4371  2450844    0,45%
 412684 39448    infeasible           6402,0000     6374,1531  2454616    0,43%
 414188 38546        cutoff           6402,0000     6374,8333  2458790    0,42%
 415642 36892        cutoff           6402,0000     6375,6864  2467143    0,41%
 417011 35095        cutoff           6402,0000     6376,1695  2476068    0,40%
 418512 33688        cutoff           6402,0000     6377,5737  2481843    0,38%
 420036 32737        cutoff           6402,0000     6378,2372  2486202    0,37%
 421427 30923        cutoff           6402,0000     6379,3379  2494615    0,35%
Elapsed time = 3748,69 sec. (1592474,96 ticks, tree = 396,54 MB, solutions = 21)
 422427 30004        cutoff           6402,0000     6379,9190  2498096    0,34%
 423537 29315    infeasible           6402,0000     6380,5030  2500700    0,34%
 425036 27227        cutoff           6402,0000     6381,5478  2510043    0,32%
 426525 25794    infeasible           6402,0000     6382,2338  2515658    0,31%
 427959 24490        cutoff           6402,0000     6382,9987  2521714    0,30%
 429481 23211    infeasible           6402,0000     6384,0855  2527456    0,28%
 430903 21797        cutoff           6402,0000     6384,8071  2532624    0,27%
 431884 20435        cutoff           6402,0000     6385,3862  2537632    0,26%
 433280 20350        cutoff           6402,0000     6385,8000  2537979    0,25%
 434828 17661    infeasible           6402,0000     6386,9638  2548158    0,23%
Elapsed time = 3845,40 sec. (1630643,71 ticks, tree = 221,38 MB, solutions = 21)
 436445 16240        cutoff           6402,0000     6388,0054  2552602    0,22%
 437926 14679        cutoff           6402,0000     6388,7644  2557867    0,21%
 439484 13115    infeasible           6402,0000     6389,7056  2563154    0,19%
 441001 11307        cutoff           6402,0000     6390,6468  2569434    0,18%
 442191 10091        cutoff           6402,0000     6391,5000  2573267    0,16%
 443525  9014        cutoff           6402,0000     6392,2467  2576523    0,15%
 444747  7606        cutoff           6402,0000     6393,0194  2580594    0,14%
 446161  6230        cutoff           6402,0000     6394,1092  2584737    0,12%
 447673  4690        cutoff           6402,0000     6395,2081  2588825    0,11%
 449072  3283        cutoff           6402,0000     6396,6029  2592354    0,08%
Elapsed time = 3944,53 sec. (1668808,46 ticks, tree = 30,75 MB, solutions = 21)
 450518  1739        cutoff           6402,0000     6398,1684  2596002    0,06%
 452058   143        cutoff           6402,0000     6400,5556  2598975    0,02%

Cover cuts applied:  1
Implied bound cuts applied:  40
Flow cuts applied:  346
Mixed integer rounding cuts applied:  1364
Lift and project cuts applied:  1
Gomory fractional cuts applied:  17

Root node processing (before b&c):
  Real time             =   40,93 sec. (28053,46 ticks)
Parallel b&c, 4 threads:
  Real time             = 3925,50 sec. (1648665,89 ticks)
  Sync time (average)   =  213,94 sec.
  Wait time (average)   =    0,25 sec.
                          ------------
Total (root+branch&cut) = 3966,43 sec. (1676719,35 ticks)

<<< solve


OBJECTIVE: 6402

<<< post process


<<< done

